19:30:35.017 -> TEST DE CONEXION PARA EL GIROSCOPIO Y EL ACELEROMETRO 
19:30:35.085 -> 
1. Test de conexión con la MPU6050 
19:30:35.120 -> 
Conexión exitosa con MPU6050 
19:30:35.154 -> 
Hola soy la MPU6050 
19:30:35.154 -> 
19:30:35.189 -> 

El tiempo es 0.009972 segundos 
1   (Ax= 1.03, Ay= -0.01, Az= -0.04),   (Gx= -0.70, Gy= 1.13, Gz= -1.22),   TEMP= 10.12 °F  
19:30:41.616 -> 
El tiempo es 0.009971 segundos 
2   (Ax= 1.03, Ay= 0.00, Az= -0.04),   (Gx= -1.02, Gy= 1.08, Gz= -1.24),   TEMP= 10.07 °F  
19:30:41.753 -> 
El tiempo es 0.009972 segundos 
3   (Ax= 1.03, Ay= 0.00, Az= -0.04),   (Gx= -0.86, Gy= 1.05, Gz= -1.15),   TEMP= 10.03 °F  
19:30:41.891 -> 
El tiempo es 0.009972 segundos 
4   (Ax= 1.04, Ay= 0.01, Az= -0.05),   (Gx= -1.11, Gy= 1.13, Gz= -1.08),   TEMP= 10.17 °F  
19:30:42.029 -> 
El tiempo es 0.009972 segundos 
5   (Ax= 1.03, Ay= 0.00, Az= -0.05),   (Gx= -0.81, Gy= 1.01, Gz= -1.15),   TEMP= 10.03 °F  
19:30:42.200 -> 
El tiempo es 0.009972 segundos 
6   (Ax= 1.04, Ay= -0.00, Az= -0.04),   (Gx= -0.89, Gy= 0.99, Gz= -1.20),   TEMP= 10.07 °F  
19:30:42.339 -> 
El tiempo es 0.009972 segundos 
7   (Ax= 1.03, Ay= -0.00, Az= -0.05),   (Gx= -0.99, Gy= 1.04, Gz= -1.42),   TEMP= 10.03 °F  
19:30:42.478 -> 
El tiempo es 0.009972 segundos 
8   (Ax= 1.03, Ay= 0.00, Az= -0.05),   (Gx= -0.82, Gy= 1.21, Gz= -1.50),   TEMP= 9.98 °F  
19:30:42.616 -> 
El tiempo es 0.009972 segundos 
9   (Ax= 1.03, Ay= 0.01, Az= -0.04),   (Gx= -1.04, Gy= 0.95, Gz= -1.14),   TEMP= 10.07 °F  
19:30:42.753 -> 
El tiempo es 0.009972 segundos 
10   (Ax= 1.03, Ay= 0.00, Az= -0.05),   (Gx= -0.97, Gy= 1.25, Gz= -1.01),   TEMP= 10.03 °F  
19:30:42.891 -> 
El tiempo es 0.009972 segundos 
11   (Ax= 1.03, Ay= 0.00, Az= -0.05),   (Gx= -0.85, Gy= 0.95, Gz= -1.24),   TEMP= 9.98 °F  
19:30:43.029 -> 
El tiempo es 0.009972 segundos 
12   (Ax= 1.03, Ay= -0.00, Az= -0.05),   (Gx= -0.90, Gy= 1.03, Gz= -1.40),   TEMP= 10.03 °F  
19:30:43.164 -> 
El tiempo es 0.009972 segundos 
13   (Ax= 1.03, Ay= 0.01, Az= -0.04),   (Gx= -0.85, Gy= 0.96, Gz= -1.37),   TEMP= 10.12 °F  
19:30:43.301 -> 
El tiempo es 0.009972 segundos 
14   (Ax= 1.02, Ay= 0.00, Az= -0.04),   (Gx= -0.92, Gy= 1.19, Gz= -1.17),   TEMP= 10.07 °F  
19:30:43.471 -> 
El tiempo es 0.009972 segundos 
15   (Ax= 1.03, Ay= -0.00, Az= -0.04),   (Gx= -1.04, Gy= 1.04, Gz= -1.17),   TEMP= 10.03 °F  
19:30:43.607 -> 
El tiempo es 0.009972 segundos 
16   (Ax= 1.03, Ay= 0.01, Az= -0.04),   (Gx= -0.97, Gy= 1.11, Gz= -1.19),   TEMP= 10.03 °F  
19:30:43.743 -> 
El tiempo es 0.009972 segundos 
17   (Ax= 1.03, Ay= 0.00, Az= -0.04),   (Gx= -0.94, Gy= 1.30, Gz= -1.33),   TEMP= 10.12 °F  
19:30:43.882 -> 
El tiempo es 0.009972 segundos 
18   (Ax= 1.03, Ay= -0.01, Az= -0.05),   (Gx= -0.92, Gy= 1.04, Gz= -1.28),   TEMP= 10.07 °F  
19:30:44.021 -> 
El tiempo es 0.009972 segundos 
19   (Ax= 1.03, Ay= 0.00, Az= -0.04),   (Gx= -0.78, Gy= 1.28, Gz= -1.11),   TEMP= 10.12 °F  
19:30:44.654 -> 
El tiempo es 0.009972 segundos 
20   (Ax= 1.03, Ay= -0.00, Az= -0.04),   (Gx= -0.93, Gy= 1.05, Gz= -1.16),   TEMP= 10.12 °F  
19:30:44.654 -> 
El tiempo es 0.009972 segundos 
21   (Ax= 1.03, Ay= 0.01, Az= -0.04),   (Gx= -0.96, Gy= 1.35, Gz= -1.14),   TEMP= 10.07 °F  
19:30:44.804 -> 
El tiempo es 0.009972 segundos 
22   (Ax= 1.03, Ay= 0.00, Az= -0.05),   (Gx= -1.01, Gy= 1.14, Gz= -1.32),   TEMP= 10.03 °F  
19:30:44.804 -> 
El tiempo es 0.009972 segundos 
23   (Ax= 1.03, Ay= 0.00, Az= -0.04),   (Gx= -1.00, Gy= 0.98, Gz= -1.24),   TEMP= 10.07 °F  
19:30:44.826 -> 
El tiempo es 0.009972 segundos 
24   (Ax= 1.03, Ay= 0.00, Az= -0.05),   (Gx= -0.94, Gy= 1.11, Gz= -1.22),   TEMP= 10.03 °F  
19:30:44.864 -> 
El tiempo es 0.009972 segundos 
25   (Ax= 1.03, Ay= 0.00, Az= -0.05),   (Gx= -0.79, Gy= 1.05, Gz= -1.41),   TEMP= 10.17 °F  
19:30:45.035 -> 
El tiempo es 0.009972 segundos 
26   (Ax= 1.03, Ay= 0.01, Az= -0.05),   (Gx= -0.96, Gy= 1.06, Gz= -1.09),   TEMP= 10.12 °F  
19:30:45.175 -> 
El tiempo es 0.009972 segundos 
27   (Ax= 1.03, Ay= 0.00, Az= -0.05),   (Gx= -0.97, Gy= 1.09, Gz= -1.28),   TEMP= 10.07 °F  
19:30:45.313 -> 
El tiempo es 0.009972 segundos 
28   (Ax= 1.03, Ay= 0.01, Az= -0.04),   (Gx= -0.91, Gy= 1.08, Gz= -1.53),   TEMP= 10.12 °F  
19:30:45.452 -> 
El tiempo es 0.009972 segundos 
29   (Ax= 1.03, Ay= 0.00, Az= -0.04),   (Gx= -0.92, Gy= 1.09, Gz= -1.04),   TEMP= 10.07 °F  
19:30:45.589 -> 
El tiempo es 0.009972 segundos 
30   (Ax= 1.03, Ay= 0.00, Az= -0.04),   (Gx= -0.73, Gy= 1.12, Gz= -1.13),   TEMP= 10.07 °F  
19:30:45.728 -> 
El tiempo es 0.009972 segundos 
31   (Ax= 1.03, Ay= 0.00, Az= -0.04),   (Gx= -0.77, Gy= 1.30, Gz= -1.20),   TEMP= 10.12 °F  
19:30:45.868 -> 
El tiempo es 0.009985 segundos 
32   (Ax= 1.03, Ay= 0.00, Az= -0.04),   (Gx= -1.11, Gy= 1.15, Gz= -1.34),   TEMP= 10.17 °F  
19:30:46.007 -> 
El tiempo es 0.009972 segundos 
33   (Ax= 1.03, Ay= 0.00, Az= -0.04),   (Gx= -0.67, Gy= 1.25, Gz= -1.47),   TEMP= 10.03 °F  
19:30:46.148 -> 
El tiempo es 0.009972 segundos 
34   (Ax= 1.02, Ay= 0.01, Az= -0.04),   (Gx= -0.78, Gy= 1.05, Gz= -1.48),   TEMP= 10.07 °F  
19:30:46.285 -> 
El tiempo es 0.009972 segundos 
35   (Ax= 1.03, Ay= 0.00, Az= -0.04),   (Gx= -0.99, Gy= 1.01, Gz= -1.21),   TEMP= 10.12 °F  
19:30:46.424 -> 
El tiempo es 0.009974 segundos 
36   (Ax= 1.03, Ay= -0.00, Az= -0.05),   (Gx= -0.93, Gy= 1.12, Gz= -1.31),   TEMP= 10.17 °F  
19:30:46.563 -> 
El tiempo es 0.009972 segundos 
37   (Ax= 1.03, Ay= 0.00, Az= -0.04),   (Gx= -0.82, Gy= 1.30, Gz= -1.28),   TEMP= 10.17 °F  
19:30:46.736 -> 
El tiempo es 0.009972 segundos 
38   (Ax= 1.03, Ay= 0.01, Az= -0.04),   (Gx= -0.79, Gy= 1.02, Gz= -1.08),   TEMP= 10.12 °F  
19:30:46.876 -> 
El tiempo es 0.009972 segundos 
39   (Ax= 1.03, Ay= -0.00, Az= -0.04),   (Gx= -0.94, Gy= 1.14, Gz= -1.14),   TEMP= 10.12 °F  
19:30:47.015 -> 
El tiempo es 0.009972 segundos 
40   (Ax= 1.03, Ay= 0.00, Az= -0.04),   (Gx= -1.01, Gy= 1.26, Gz= -1.21),   TEMP= 10.07 °F  
19:30:47.156 -> 
El tiempo es 0.009972 segundos 
41   (Ax= 1.03, Ay= 0.00, Az= -0.04),   (Gx= -0.82, Gy= 0.92, Gz= -1.08),   TEMP= 10.07 °F  
19:30:47.293 -> 
El tiempo es 0.009973 segundos 
42   (Ax= 1.03, Ay= -0.00, Az= -0.04),   (Gx= -0.80, Gy= 1.05, Gz= -1.22),   TEMP= 10.12 °F  
19:30:47.431 -> 
El tiempo es 0.009972 segundos 
43   (Ax= 1.03, Ay= 0.01, Az= -0.04),   (Gx= -0.82, Gy= 1.17, Gz= -1.12),   TEMP= 10.17 °F  
19:30:47.570 -> 
El tiempo es 0.009972 segundos 
44   (Ax= 1.03, Ay= 0.01, Az= -0.04),   (Gx= -0.82, Gy= 0.95, Gz= -1.22),   TEMP= 10.12 °F  
19:30:47.708 -> 
El tiempo es 0.009972 segundos 
45   (Ax= 1.03, Ay= 0.00, Az= -0.04),   (Gx= -0.89, Gy= 1.27, Gz= -1.39),   TEMP= 10.07 °F  
19:30:47.847 -> 
El tiempo es 0.009971 segundos 
46   (Ax= 1.03, Ay= 0.00, Az= -0.04),   (Gx= -0.84, Gy= 0.98, Gz= -1.11),   TEMP= 10.12 °F  
19:30:47.986 -> 
El tiempo es 0.009972 segundos 
47   (Ax= 1.03, Ay= 0.00, Az= -0.04),   (Gx= -0.93, Gy= 1.17, Gz= -1.33),   TEMP= 10.07 °F  
19:30:48.125 -> 
El tiempo es 0.009972 segundos 
48   (Ax= 1.02, Ay= 0.00, Az= -0.04),   (Gx= -0.96, Gy= 1.12, Gz= -1.08),   TEMP= 10.03 °F  
19:30:48.297 -> 
El tiempo es 0.009972 segundos 
49   (Ax= 1.03, Ay= 0.00, Az= -0.05),   (Gx= -0.70, Gy= 0.92, Gz= -0.94),   TEMP= 10.07 °F  
19:30:48.436 -> 
El tiempo es 0.009972 segundos 
50   (Ax= 1.03, Ay= 0.01, Az= -0.04),   (Gx= -0.84, Gy= 1.30, Gz= -1.15),   TEMP= 10.12 °F  
19:30:48.575 -> 
El tiempo es 0.009972 segundos 
51   (Ax= 1.03, Ay= 0.01, Az= -0.04),   (Gx= -1.03, Gy= 1.16, Gz= -1.16),   TEMP= 10.17 °F  
19:30:48.716 -> 
El tiempo es 0.009972 segundos 
52   (Ax= 1.03, Ay= 0.00, Az= -0.05),   (Gx= -0.89, Gy= 1.10, Gz= -1.13),   TEMP= 10.17 °F  
19:30:48.855 -> 
El tiempo es 0.009972 segundos 
53   (Ax= 1.03, Ay= 0.00, Az= -0.05),   (Gx= -0.98, Gy= 1.17, Gz= -1.38),   TEMP= 10.12 °F  
19:30:48.994 -> 
El tiempo es 0.009972 segundos 
54   (Ax= 1.04, Ay= 0.00, Az= -0.03),   (Gx= -0.86, Gy= 1.15, Gz= -1.17),   TEMP= 10.17 °F  
19:30:49.132 -> 
El tiempo es 0.009972 segundos 
55   (Ax= 1.04, Ay= 0.00, Az= -0.04),   (Gx= -0.82, Gy= 0.84, Gz= -1.19),   TEMP= 10.07 °F  
19:30:49.270 -> 
El tiempo es 0.009972 segundos 
56   (Ax= 1.03, Ay= 0.01, Az= -0.04),   (Gx= -0.76, Gy= 0.95, Gz= -1.21),   TEMP= 10.12 °F  
19:30:49.409 -> 
El tiempo es 0.009972 segundos 
57   (Ax= 1.03, Ay= 0.00, Az= -0.04),   (Gx= -0.84, Gy= 1.05, Gz= -1.01),   TEMP= 10.07 °F  
19:30:49.548 -> 
El tiempo es 0.009972 segundos 
58   (Ax= 1.03, Ay= 0.01, Az= -0.05),   (Gx= -1.00, Gy= 1.02, Gz= -1.18),   TEMP= 10.12 °F  
19:30:49.687 -> 
El tiempo es 0.009972 segundos 
59   (Ax= 1.03, Ay= 0.00, Az= -0.04),   (Gx= -0.85, Gy= 0.98, Gz= -1.12),   TEMP= 10.07 °F  
19:30:49.825 -> 
El tiempo es 0.009972 segundos 
60   (Ax= 1.03, Ay= 0.00, Az= -0.05),   (Gx= -0.82, Gy= 1.01, Gz= -1.36),   TEMP= 10.12 °F  
19:30:50.001 -> 
El tiempo es 0.009972 segundos 
61   (Ax= 1.03, Ay= 0.01, Az= -0.04),   (Gx= -0.95, Gy= 1.08, Gz= -1.34),   TEMP= 10.17 °F  
19:30:50.140 -> 
El tiempo es 0.009972 segundos 
62   (Ax= 1.03, Ay= 0.00, Az= -0.04),   (Gx= -0.85, Gy= 1.11, Gz= -1.31),   TEMP= 10.22 °F  
19:30:50.278 -> 
El tiempo es 0.009972 segundos 
63   (Ax= 1.03, Ay= -0.00, Az= -0.04),   (Gx= -0.80, Gy= 0.95, Gz= -1.03),   TEMP= 10.07 °F  
19:30:50.418 -> 
El tiempo es 0.009973 segundos 
64   (Ax= 1.03, Ay= 0.01, Az= -0.04),   (Gx= -0.98, Gy= 0.90, Gz= -1.29),   TEMP= 10.03 °F  
19:30:51.068 -> 
El tiempo es 0.009972 segundos 
65   (Ax= 1.03, Ay= 0.01, Az= -0.04),   (Gx= -0.92, Gy= 0.78, Gz= -1.23),   TEMP= 10.07 °F  
19:30:51.120 -> 
El tiempo es 0.009972 segundos 
66   (Ax= 1.03, Ay= 0.00, Az= -0.04),   (Gx= -0.92, Gy= 1.12, Gz= -1.08),   TEMP= 10.12 °F  
19:30:51.120 -> 
El tiempo es 0.009972 segundos 
67   (Ax= 1.03, Ay= 0.00, Az= -0.04),   (Gx= -1.14, Gy= 1.21, Gz= -1.11),   TEMP= 10.07 °F  
19:30:51.120 -> 
El tiempo es 0.009975 segundos 
68   (Ax= 1.02, Ay= -0.00, Az= -0.04),   (Gx= -1.04, Gy= 1.11, Gz= -1.15),   TEMP= 10.22 °F  
19:30:51.129 -> 
El tiempo es 0.009973 segundos 
69   (Ax= 1.02, Ay= -0.00, Az= -0.05),   (Gx= -0.82, Gy= 1.03, Gz= -1.14),   TEMP= 10.17 °F  
19:30:51.275 -> 
El tiempo es 0.009972 segundos 
70   (Ax= 1.02, Ay= 0.00, Az= -0.04),   (Gx= -0.91, Gy= 0.98, Gz= -1.26),   TEMP= 10.12 °F  
19:30:51.392 -> 
El tiempo es 0.009972 segundos 
71   (Ax= 1.03, Ay= 0.01, Az= -0.05),   (Gx= -0.72, Gy= 1.11, Gz= -1.12),   TEMP= 10.17 °F  
19:30:51.531 -> 
El tiempo es 0.009972 segundos 
72   (Ax= 1.03, Ay= 0.01, Az= -0.05),   (Gx= -0.92, Gy= 1.21, Gz= -1.35),   TEMP= 10.12 °F  
19:30:51.698 -> 
El tiempo es 0.009974 segundos 
73   (Ax= 1.03, Ay= 0.00, Az= -0.05),   (Gx= -0.63, Gy= 1.01, Gz= -1.20),   TEMP= 10.17 °F  
19:30:51.941 -> 
El tiempo es 0.009971 segundos 
74   (Ax= 1.03, Ay= 0.00, Az= -0.04),   (Gx= -1.00, Gy= 1.08, Gz= -1.31),   TEMP= 10.03 °F  
19:30:51.961 -> 
El tiempo es 0.009972 segundos 
75   (Ax= 1.02, Ay= -0.00, Az= -0.03),   (Gx= -0.98, Gy= 0.97, Gz= -1.21),   TEMP= 10.07 °F  
19:30:52.097 -> 
El tiempo es 0.009973 segundos 
76   (Ax= 1.03, Ay= 0.00, Az= -0.03),   (Gx= -0.86, Gy= 1.13, Gz= -1.33),   TEMP= 10.07 °F  
19:30:52.271 -> 
El tiempo es 0.009972 segundos 
77   (Ax= 1.03, Ay= 0.01, Az= -0.04),   (Gx= -0.84, Gy= 1.13, Gz= -1.28),   TEMP= 10.12 °F  
19:30:52.411 -> 
El tiempo es 0.009972 segundos 
78   (Ax= 1.03, Ay= 0.01, Az= -0.04),   (Gx= -0.82, Gy= 1.24, Gz= -1.21),   TEMP= 10.17 °F  
19:30:52.552 -> 
El tiempo es 0.009972 segundos 
79   (Ax= 1.02, Ay= -0.00, Az= -0.04),   (Gx= -0.88, Gy= 0.76, Gz= -1.12),   TEMP= 10.12 °F  
19:30:52.687 -> 
El tiempo es 0.009972 segundos 
80   (Ax= 1.02, Ay= 0.00, Az= -0.04),   (Gx= -0.84, Gy= 0.90, Gz= -1.10),   TEMP= 10.17 °F  
19:30:52.827 -> 
El tiempo es 0.009971 segundos 
81   (Ax= 1.03, Ay= -0.00, Az= -0.05),   (Gx= -0.95, Gy= 1.01, Gz= -1.23),   TEMP= 10.12 °F  
19:30:52.968 -> 
El tiempo es 0.009971 segundos 
82   (Ax= 1.04, Ay= 0.00, Az= -0.05),   (Gx= -0.75, Gy= 0.93, Gz= -1.25),   TEMP= 10.12 °F  
19:30:53.105 -> 
El tiempo es 0.009972 segundos 
83   (Ax= 1.03, Ay= -0.00, Az= -0.04),   (Gx= -0.99, Gy= 1.11, Gz= -1.36),   TEMP= 10.17 °F  
19:30:53.245 -> 
El tiempo es 0.009972 segundos 
84   (Ax= 1.03, Ay= 0.00, Az= -0.05),   (Gx= -0.74, Gy= 0.89, Gz= -1.08),   TEMP= 10.17 °F  
19:30:53.383 -> 
El tiempo es 0.009971 segundos 
85   (Ax= 1.04, Ay= 0.00, Az= -0.03),   (Gx= -0.63, Gy= 1.34, Gz= -1.14),   TEMP= 10.12 °F  
19:30:53.523 -> 
El tiempo es 0.009972 segundos 
86   (Ax= 1.03, Ay= 0.00, Az= -0.04),   (Gx= -0.79, Gy= 1.21, Gz= -1.19),   TEMP= 10.07 °F  
19:30:53.662 -> 
El tiempo es 0.009972 segundos 
87   (Ax= 1.03, Ay= 0.00, Az= -0.05),   (Gx= -1.03, Gy= 1.27, Gz= -1.05),   TEMP= 10.12 °F  
19:30:53.835 -> 
El tiempo es 0.009972 segundos 
88   (Ax= 1.03, Ay= -0.00, Az= -0.03),   (Gx= -0.89, Gy= 1.23, Gz= -1.27),   TEMP= 10.07 °F  
19:30:53.975 -> 
El tiempo es 0.009972 segundos 
89   (Ax= 1.04, Ay= 0.00, Az= -0.06),   (Gx= -0.67, Gy= 1.01, Gz= -1.21),   TEMP= 10.17 °F  
19:30:54.113 -> 
El tiempo es 0.009972 segundos 
90   (Ax= 1.02, Ay= 0.00, Az= -0.04),   (Gx= -0.89, Gy= 1.15, Gz= -1.10),   TEMP= 10.12 °F  
19:30:54.252 -> 
El tiempo es 0.009972 segundos 
91   (Ax= 1.03, Ay= 0.00, Az= -0.04),   (Gx= -0.83, Gy= 1.00, Gz= -1.04),   TEMP= 10.07 °F  
19:30:54.390 -> 
El tiempo es 0.009972 segundos 
92   (Ax= 1.03, Ay= 0.00, Az= -0.03),   (Gx= -0.87, Gy= 1.17, Gz= -1.35),   TEMP= 10.17 °F  
19:30:54.527 -> 
El tiempo es 0.009972 segundos 
93   (Ax= 1.03, Ay= 0.00, Az= -0.04),   (Gx= -0.82, Gy= 0.98, Gz= -0.94),   TEMP= 10.17 °F  
19:30:54.665 -> 
El tiempo es 0.009972 segundos 
94   (Ax= 1.03, Ay= 0.01, Az= -0.04),   (Gx= -0.87, Gy= 0.99, Gz= -1.18),   TEMP= 10.07 °F  
19:30:54.804 -> 
El tiempo es 0.009972 segundos 
95   (Ax= 1.03, Ay= 0.00, Az= -0.04),   (Gx= -0.86, Gy= 1.05, Gz= -1.20),   TEMP= 10.12 °F  
19:30:54.942 -> 
El tiempo es 0.009972 segundos 
96   (Ax= 1.03, Ay= 0.00, Az= -0.04),   (Gx= -1.01, Gy= 1.17, Gz= -1.21),   TEMP= 10.17 °F  
19:30:55.083 -> 
El tiempo es 0.009973 segundos 
97   (Ax= 1.03, Ay= -0.00, Az= -0.03),   (Gx= -0.86, Gy= 0.89, Gz= -1.24),   TEMP= 10.17 °F  
19:30:55.257 -> 
El tiempo es 0.009973 segundos 
98   (Ax= 1.02, Ay= 0.00, Az= -0.05),   (Gx= -1.00, Gy= 1.01, Gz= -1.21),   TEMP= 10.22 °F  
19:30:55.396 -> 
El tiempo es 0.009972 segundos 
99   (Ax= 1.03, Ay= 0.00, Az= -0.05),   (Gx= -0.69, Gy= 0.84, Gz= -1.40),   TEMP= 10.07 °F  
19:30:55.535 -> 
El tiempo es 0.009973 segundos 
100   (Ax= 1.03, Ay= 0.01, Az= -0.05),   (Gx= -0.73, Gy= 0.95, Gz= -1.51),   TEMP= 10.07 °F  
19:30:55.673 -> 
El tiempo es 0.009972 segundos 
101   (Ax= 1.03, Ay= 0.00, Az= -0.05),   (Gx= -0.89, Gy= 1.17, Gz= -1.24),   TEMP= 10.12 °F  
19:30:55.813 -> 
El tiempo es 0.009972 segundos 
102   (Ax= 1.03, Ay= -0.00, Az= -0.04),   (Gx= -0.95, Gy= 1.09, Gz= -1.31),   TEMP= 10.17 °F  
19:30:55.952 -> 
El tiempo es 0.009972 segundos 
103   (Ax= 1.03, Ay= 0.01, Az= -0.04),   (Gx= -0.92, Gy= 1.12, Gz= -1.08),   TEMP= 10.17 °F  
19:30:56.092 -> 
El tiempo es 0.009971 segundos 
104   (Ax= 1.03, Ay= 0.00, Az= -0.05),   (Gx= -0.92, Gy= 1.17, Gz= -1.37),   TEMP= 10.07 °F  
19:30:56.232 -> 
El tiempo es 0.009972 segundos 
105   (Ax= 1.02, Ay= 0.00, Az= -0.04),   (Gx= -0.97, Gy= 1.11, Gz= -1.39),   TEMP= 10.12 °F  
19:30:56.370 -> 
El tiempo es 0.009972 segundos 
106   (Ax= 1.03, Ay= -0.00, Az= -0.03),   (Gx= -1.01, Gy= 0.84, Gz= -1.33),   TEMP= 10.12 °F  
19:30:56.508 -> 
El tiempo es 0.009972 segundos 
107   (Ax= 1.02, Ay= 0.00, Az= -0.05),   (Gx= -1.12, Gy= 1.00, Gz= -1.26),   TEMP= 10.03 °F  
19:30:56.682 -> 
El tiempo es 0.009971 segundos 
108   (Ax= 1.03, Ay= 0.01, Az= -0.05),   (Gx= -0.99, Gy= 1.14, Gz= -1.34),   TEMP= 10.07 °F  
19:30:56.822 -> 
El tiempo es 0.009973 segundos 
109   (Ax= 1.03, Ay= -0.01, Az= -0.05),   (Gx= -0.89, Gy= 1.07, Gz= -1.10),   TEMP= 10.12 °F  
19:30:56.963 -> 
El tiempo es 0.009972 segundos 
110   (Ax= 1.03, Ay= -0.00, Az= -0.04),   (Gx= -1.00, Gy= 1.17, Gz= -1.36),   TEMP= 10.12 °F  
19:30:57.102 -> 
El tiempo es 0.009971 segundos 
111   (Ax= 1.03, Ay= 0.00, Az= -0.04),   (Gx= -0.88, Gy= 0.94, Gz= -1.07),   TEMP= 10.12 °F  
19:30:57.239 -> 
El tiempo es 0.009972 segundos 
112   (Ax= 1.03, Ay= 0.00, Az= -0.05),   (Gx= -1.16, Gy= 0.71, Gz= -1.05),   TEMP= 10.07 °F  
19:30:57.379 -> 
El tiempo es 0.009972 segundos 
113   (Ax= 1.03, Ay= 0.00, Az= -0.05),   (Gx= -0.86, Gy= 0.97, Gz= -1.39),   TEMP= 10.07 °F  
19:30:57.518 -> 
El tiempo es 0.009972 segundos 
114   (Ax= 1.03, Ay= 0.01, Az= -0.04),   (Gx= -0.99, Gy= 1.19, Gz= -1.15),   TEMP= 10.17 °F  
19:30:57.657 -> 
El tiempo es 0.009972 segundos 
115   (Ax= 1.03, Ay= 0.01, Az= -0.04),   (Gx= -0.98, Gy= 1.16, Gz= -1.18),   TEMP= 10.12 °F  
19:30:57.797 -> 
El tiempo es 0.009972 segundos 
116   (Ax= 1.03, Ay= 0.00, Az= -0.05),   (Gx= -0.92, Gy= 1.11, Gz= -1.21),   TEMP= 10.12 °F  
19:30:57.939 -> 
El tiempo es 0.009972 segundos 
117   (Ax= 1.03, Ay= 0.01, Az= -0.04),   (Gx= -0.90, Gy= 1.01, Gz= -1.15),   TEMP= 10.07 °F  
19:30:58.114 -> 
El tiempo es 0.009972 segundos 
118   (Ax= 1.04, Ay= 0.00, Az= -0.04),   (Gx= -0.82, Gy= 1.05, Gz= -1.31),   TEMP= 10.17 °F  
19:30:58.233 -> 
El tiempo es 0.009972 segundos 
119   (Ax= 1.03, Ay= 0.00, Az= -0.04),   (Gx= -0.98, Gy= 1.16, Gz= -1.11),   TEMP= 10.12 °F  
19:30:58.377 -> 
El tiempo es 0.009972 segundos 
120   (Ax= 1.03, Ay= -0.00, Az= -0.05),   (Gx= -1.00, Gy= 1.03, Gz= -1.15),   TEMP= 10.03 °F  
19:30:58.513 -> 
El tiempo es 0.009972 segundos 
121   (Ax= 1.03, Ay= -0.00, Az= -0.03),   (Gx= -0.76, Gy= 1.01, Gz= -1.18),   TEMP= 10.12 °F  
19:30:58.686 -> 
El tiempo es 0.009972 segundos 
122   (Ax= 1.03, Ay= 0.00, Az= -0.04),   (Gx= -0.85, Gy= 1.23, Gz= -1.22),   TEMP= 10.22 °F  
19:30:58.825 -> 
El tiempo es 0.009972 segundos 
123   (Ax= 1.03, Ay= 0.00, Az= -0.04),   (Gx= -1.14, Gy= 1.11, Gz= -1.21),   TEMP= 10.12 °F  
19:30:58.972 -> 
El tiempo es 0.009972 segundos 
124   (Ax= 1.03, Ay= 0.00, Az= -0.04),   (Gx= -1.03, Gy= 1.16, Gz= -1.31),   TEMP= 10.17 °F  
19:30:59.113 -> 
El tiempo es 0.009972 segundos 
125   (Ax= 1.04, Ay= 0.00, Az= -0.04),   (Gx= -0.94, Gy= 1.18, Gz= -1.21),   TEMP= 10.17 °F  
19:30:59.253 -> 
El tiempo es 0.009972 segundos 
126   (Ax= 1.04, Ay= 0.00, Az= -0.04),   (Gx= -0.76, Gy= 1.01, Gz= -1.15),   TEMP= 10.12 °F  
19:30:59.369 -> 
El tiempo es 0.009972 segundos 
127   (Ax= 1.03, Ay= 0.00, Az= -0.04),   (Gx= -0.56, Gy= 0.96, Gz= -1.26),   TEMP= 10.12 °F  
19:30:59.542 -> 
El tiempo es 0.009972 segundos 
128   (Ax= 1.03, Ay= 0.00, Az= -0.05),   (Gx= -0.87, Gy= 1.25, Gz= -1.30),   TEMP= 10.12 °F  
19:30:59.681 -> 
El tiempo es 0.009972 segundos 
129   (Ax= 1.02, Ay= -0.00, Az= -0.05),   (Gx= -0.93, Gy= 1.21, Gz= -1.27),   TEMP= 10.17 °F  
19:30:59.820 -> 
El tiempo es 0.009972 segundos 
130   (Ax= 1.03, Ay= -0.00, Az= -0.04),   (Gx= -0.86, Gy= 1.14, Gz= -1.19),   TEMP= 10.07 °F  
19:30:59.958 -> 
El tiempo es 0.009972 segundos 
131   (Ax= 1.03, Ay= -0.00, Az= -0.04),   (Gx= -0.98, Gy= 1.04, Gz= -1.44),   TEMP= 10.07 °F  
19:31:00.117 -> 
El tiempo es 0.009972 segundos 
132   (Ax= 1.03, Ay= 0.00, Az= -0.05),   (Gx= -0.94, Gy= 1.46, Gz= -1.17),   TEMP= 10.27 °F  
19:31:00.227 -> 
El tiempo es 0.009972 segundos 
133   (Ax= 1.04, Ay= 0.00, Az= -0.04),   (Gx= -0.84, Gy= 1.16, Gz= -1.36),   TEMP= 10.17 °F  
19:31:00.402 -> 
El tiempo es 0.009971 segundos 
134   (Ax= 1.03, Ay= -0.00, Az= -0.04),   (Gx= -0.82, Gy= 0.98, Gz= -1.27),   TEMP= 10.17 °F  
19:31:00.545 -> 
El tiempo es 0.009972 segundos 
135   (Ax= 1.02, Ay= 0.00, Az= -0.04),   (Gx= -1.08, Gy= 1.24, Gz= -1.09),   TEMP= 10.22 °F  
19:31:00.680 -> 
El tiempo es 0.009972 segundos 
136   (Ax= 1.03, Ay= -0.00, Az= -0.04),   (Gx= -0.97, Gy= 1.46, Gz= -1.34),   TEMP= 10.12 °F  
19:31:00.820 -> 
El tiempo es 0.009971 segundos 
137   (Ax= 1.03, Ay= 0.01, Az= -0.05),   (Gx= -0.89, Gy= 1.01, Gz= -1.20),   TEMP= 10.03 °F  
19:31:00.958 -> 
El tiempo es 0.009972 segundos 
138   (Ax= 1.03, Ay= -0.00, Az= -0.05),   (Gx= -0.83, Gy= 1.27, Gz= -1.30),   TEMP= 10.12 °F  
19:31:01.097 -> 
El tiempo es 0.009972 segundos 
139   (Ax= 1.03, Ay= 0.00, Az= -0.04),   (Gx= -1.05, Gy= 1.21, Gz= -1.30),   TEMP= 10.12 °F  
19:31:01.237 -> 
El tiempo es 0.009972 segundos 
140   (Ax= 1.04, Ay= 0.00, Az= -0.06),   (Gx= -1.36, Gy= 1.13, Gz= -1.53),   TEMP= 10.07 °F  
19:31:01.411 -> 
El tiempo es 0.009972 segundos 
141   (Ax= 1.02, Ay= 0.02, Az= -0.04),   (Gx= -1.24, Gy= 1.38, Gz= -1.46),   TEMP= 10.17 °F  
19:31:01.535 -> 
El tiempo es 0.009973 segundos 
142   (Ax= 1.04, Ay= -0.00, Az= -0.02),   (Gx= -0.63, Gy= 1.08, Gz= -1.17),   TEMP= 10.07 °F  
19:31:01.690 -> 
El tiempo es 0.009972 segundos 
143   (Ax= 1.04, Ay= 0.01, Az= -0.05),   (Gx= -0.85, Gy= 0.68, Gz= -1.21),   TEMP= 10.07 °F  
19:31:01.811 -> 
El tiempo es 0.009972 segundos 
144   (Ax= 1.03, Ay= 0.00, Az= -0.05),   (Gx= -0.92, Gy= 0.83, Gz= -1.21),   TEMP= 10.22 °F  
19:31:01.971 -> 
El tiempo es 0.009972 segundos 
145   (Ax= 1.03, Ay= 0.00, Az= -0.04),   (Gx= -1.01, Gy= 1.36, Gz= -1.50),   TEMP= 10.12 °F  
19:31:02.091 -> 
El tiempo es 0.009972 segundos 
146   (Ax= 1.03, Ay= 0.01, Az= -0.05),   (Gx= -0.95, Gy= 1.20, Gz= -1.22),   TEMP= 10.22 °F  
19:31:02.251 -> 
El tiempo es 0.009972 segundos 
147   (Ax= 1.02, Ay= 0.01, Az= -0.05),   (Gx= -1.14, Gy= 1.42, Gz= -1.05),   TEMP= 10.17 °F  
19:31:02.411 -> 
El tiempo es 0.009972 segundos 
148   (Ax= 1.03, Ay= 0.00, Az= -0.03),   (Gx= -0.86, Gy= 0.93, Gz= -1.23),   TEMP= 10.17 °F  
19:31:02.531 -> 
El tiempo es 0.009972 segundos 
149   (Ax= 1.03, Ay= 0.01, Az= -0.03),   (Gx= -0.87, Gy= 1.11, Gz= -1.14),   TEMP= 10.12 °F  
19:31:02.661 -> 
El tiempo es 0.009972 segundos 
150   (Ax= 1.03, Ay= 0.01, Az= -0.05),   (Gx= -0.74, Gy= 0.65, Gz= -0.80),   TEMP= 10.07 °F  
19:31:02.819 -> 
El tiempo es 0.009972 segundos 
151   (Ax= 1.02, Ay= -0.00, Az= -0.07),   (Gx= -1.22, Gy= 1.02, Gz= -0.56),   TEMP= 10.27 °F  
19:31:02.979 -> 
El tiempo es 0.009972 segundos 
152   (Ax= 1.03, Ay= 0.01, Az= -0.04),   (Gx= -0.82, Gy= 1.01, Gz= -0.74),   TEMP= 10.07 °F  
19:31:03.099 -> 
El tiempo es 0.009972 segundos 
153   (Ax= 1.03, Ay= 0.00, Az= -0.03),   (Gx= -0.82, Gy= 0.98, Gz= -1.16),   TEMP= 10.17 °F  
19:31:03.259 -> 
El tiempo es 0.009972 segundos 
154   (Ax= 1.03, Ay= 0.01, Az= -0.05),   (Gx= -0.83, Gy= 1.15, Gz= -1.13),   TEMP= 10.17 °F  
19:31:03.379 -> 
El tiempo es 0.009972 segundos 
155   (Ax= 1.03, Ay= -0.00, Az= -0.04),   (Gx= -0.92, Gy= 1.13, Gz= -1.34),   TEMP= 10.12 °F  
19:31:03.539 -> 
El tiempo es 0.009972 segundos 
156   (Ax= 1.03, Ay= 0.00, Az= -0.04),   (Gx= -0.81, Gy= 1.26, Gz= -1.24),   TEMP= 10.03 °F  
19:31:03.699 -> 
El tiempo es 0.009972 segundos 
157   (Ax= 1.02, Ay= -0.00, Az= -0.04),   (Gx= -0.87, Gy= 1.04, Gz= -1.20),   TEMP= 10.12 °F  
19:31:03.819 -> 
El tiempo es 0.009973 segundos 
158   (Ax= 1.03, Ay= -0.00, Az= -0.04),   (Gx= -0.92, Gy= 1.19, Gz= -1.21),   TEMP= 10.22 °F  
19:31:03.979 -> 
El tiempo es 0.009972 segundos 
159   (Ax= 1.02, Ay= 0.01, Az= -0.05),   (Gx= -0.95, Gy= 1.04, Gz= -1.18),   TEMP= 10.22 °F  
19:31:04.107 -> 
El tiempo es 0.009984 segundos 
160   (Ax= 1.01, Ay= 0.01, Az= -0.05),   (Gx= -1.21, Gy= 1.07, Gz= -0.72),   TEMP= 10.17 °F  
19:31:04.267 -> 
El tiempo es 0.009972 segundos 
161   (Ax= 1.02, Ay= 0.01, Az= -0.04),   (Gx= -0.80, Gy= 0.76, Gz= -0.98),   TEMP= 10.17 °F  
19:31:04.387 -> 
El tiempo es 0.009972 segundos 
162   (Ax= 1.03, Ay= 0.00, Az= -0.04),   (Gx= -0.96, Gy= 0.93, Gz= -1.03),   TEMP= 10.17 °F  
19:31:04.547 -> 
El tiempo es 0.009972 segundos 
163   (Ax= 1.03, Ay= -0.01, Az= -0.05),   (Gx= -1.08, Gy= 1.19, Gz= -1.46),   TEMP= 10.12 °F  
19:31:04.667 -> 
El tiempo es 0.009972 segundos 
164   (Ax= 1.03, Ay= -0.00, Az= -0.04),   (Gx= -0.80, Gy= 0.88, Gz= -1.27),   TEMP= 10.12 °F  
19:31:04.827 -> 
El tiempo es 0.009972 segundos 
165   (Ax= 1.02, Ay= -0.00, Az= -0.05),   (Gx= -1.01, Gy= 1.11, Gz= -1.18),   TEMP= 10.12 °F  
19:31:04.974 -> 
El tiempo es 0.009972 segundos 
166   (Ax= 1.03, Ay= 0.00, Az= -0.05),   (Gx= -0.82, Gy= 0.82, Gz= -1.03),   TEMP= 10.12 °F  
19:31:05.115 -> 
El tiempo es 0.009972 segundos 
167   (Ax= 1.02, Ay= 0.00, Az= -0.04),   (Gx= -1.08, Gy= 0.56, Gz= -0.85),   TEMP= 10.22 °F  
19:31:05.264 -> 
El tiempo es 0.009972 segundos 
168   (Ax= 1.03, Ay= 0.01, Az= -0.05),   (Gx= -0.89, Gy= 1.24, Gz= -1.23),   TEMP= 10.17 °F  
19:31:05.402 -> 
El tiempo es 0.009972 segundos 
169   (Ax= 1.03, Ay= 0.01, Az= -0.04),   (Gx= -0.88, Gy= 1.05, Gz= -1.39),   TEMP= 10.22 °F  
19:31:05.541 -> 
El tiempo es 0.009972 segundos 
170   (Ax= 1.03, Ay= -0.00, Az= -0.04),   (Gx= -0.95, Gy= 1.36, Gz= -1.83),   TEMP= 10.12 °F  
19:31:05.685 -> 
El tiempo es 0.009972 segundos 
171   (Ax= 1.03, Ay= 0.01, Az= -0.05),   (Gx= -1.28, Gy= 0.99, Gz= -1.31),   TEMP= 10.22 °F  
19:31:05.823 -> 
El tiempo es 0.009984 segundos 
172   (Ax= 1.04, Ay= -0.00, Az= -0.04),   (Gx= -0.89, Gy= 0.96, Gz= -1.53),   TEMP= 10.07 °F  
19:31:05.960 -> 
El tiempo es 0.009972 segundos 
173   (Ax= 1.03, Ay= 0.00, Az= -0.04),   (Gx= -0.81, Gy= 1.95, Gz= -2.31),   TEMP= 10.12 °F  
19:31:06.098 -> 
El tiempo es 0.009973 segundos 
174   (Ax= 1.01, Ay= 0.02, Az= -0.04),   (Gx= -0.75, Gy= 0.82, Gz= -1.08),   TEMP= 10.17 °F  
19:31:06.273 -> 
El tiempo es 0.009972 segundos 
175   (Ax= 1.03, Ay= 0.00, Az= -0.03),   (Gx= -0.90, Gy= 1.21, Gz= -1.21),   TEMP= 10.27 °F  
19:31:06.386 -> 
El tiempo es 0.009971 segundos 
176   (Ax= 1.04, Ay= 0.01, Az= -0.05),   (Gx= -0.72, Gy= 0.91, Gz= -1.40),   TEMP= 10.17 °F  
19:31:06.560 -> 
El tiempo es 0.009972 segundos 
177   (Ax= 1.03, Ay= 0.00, Az= -0.03),   (Gx= -0.93, Gy= 1.41, Gz= -1.28),   TEMP= 10.12 °F  
19:31:06.705 -> 
El tiempo es 0.009972 segundos 
178   (Ax= 1.03, Ay= 0.00, Az= -0.04),   (Gx= -1.00, Gy= 1.30, Gz= -1.14),   TEMP= 10.22 °F  
19:31:06.818 -> 
El tiempo es 0.009972 segundos 
179   (Ax= 1.03, Ay= 0.01, Az= -0.05),   (Gx= -1.00, Gy= 1.18, Gz= -1.24),   TEMP= 10.17 °F  
19:31:06.955 -> 
El tiempo es 0.009972 segundos 
180   (Ax= 1.03, Ay= 0.01, Az= -0.03),   (Gx= -0.72, Gy= 1.05, Gz= -1.27),   TEMP= 10.22 °F  
19:31:07.126 -> 
El tiempo es 0.009972 segundos 
181   (Ax= 1.03, Ay= 0.00, Az= -0.04),   (Gx= -0.92, Gy= 1.11, Gz= -1.35),   TEMP= 10.17 °F  
19:31:07.268 -> 
El tiempo es 0.009972 segundos 
182   (Ax= 1.01, Ay= 0.01, Az= -0.05),   (Gx= -0.89, Gy= 0.90, Gz= -1.20),   TEMP= 10.17 °F  
19:31:07.408 -> 
El tiempo es 0.009973 segundos 
183   (Ax= 1.02, Ay= 0.00, Az= -0.04),   (Gx= -0.92, Gy= 0.98, Gz= -1.21),   TEMP= 10.17 °F  
19:31:07.527 -> 
El tiempo es 0.009973 segundos 
184   (Ax= 1.03, Ay= 0.00, Az= -0.04),   (Gx= -1.27, Gy= 1.12, Gz= -1.30),   TEMP= 10.22 °F  
19:31:07.676 -> 
El tiempo es 0.009973 segundos 
185   (Ax= 1.04, Ay= 0.00, Az= -0.04),   (Gx= -0.70, Gy= 0.72, Gz= -1.01),   TEMP= 10.22 °F  
19:31:07.825 -> 
El tiempo es 0.009972 segundos 
186   (Ax= 1.03, Ay= -0.01, Az= -0.06),   (Gx= -1.00, Gy= 0.92, Gz= -1.00),   TEMP= 10.17 °F  
19:31:07.964 -> 
El tiempo es 0.009972 segundos 
187   (Ax= 1.03, Ay= 0.01, Az= -0.03),   (Gx= -0.86, Gy= 0.47, Gz= -1.08),   TEMP= 10.12 °F  
19:31:08.102 -> 
El tiempo es 0.009972 segundos 
188   (Ax= 1.02, Ay= 0.00, Az= -0.04),   (Gx= -0.90, Gy= 0.86, Gz= -1.08),   TEMP= 10.17 °F  
19:31:08.243 -> 
El tiempo es 0.009972 segundos 
189   (Ax= 1.03, Ay= -0.00, Az= -0.04),   (Gx= -0.88, Gy= 1.01, Gz= -1.17),   TEMP= 10.17 °F  
19:31:08.416 -> 
El tiempo es 0.009972 segundos 
190   (Ax= 1.03, Ay= 0.00, Az= -0.05),   (Gx= -1.03, Gy= 1.14, Gz= -0.97),   TEMP= 10.17 °F  
19:31:08.555 -> 
El tiempo es 0.009972 segundos 
191   (Ax= 1.03, Ay= 0.00, Az= -0.05),   (Gx= -0.72, Gy= 1.11, Gz= -1.12),   TEMP= 10.12 °F  
19:31:08.694 -> 
El tiempo es 0.009971 segundos 
192   (Ax= 1.03, Ay= 0.01, Az= -0.04),   (Gx= -1.14, Gy= 1.37, Gz= -1.23),   TEMP= 10.12 °F  
19:31:08.824 -> 
El tiempo es 0.009971 segundos 
193   (Ax= 1.03, Ay= 0.01, Az= -0.05),   (Gx= -0.72, Gy= 0.89, Gz= -1.18),   TEMP= 10.17 °F  
19:31:08.980 -> 
El tiempo es 0.009972 segundos 
194   (Ax= 1.03, Ay= 0.00, Az= -0.04),   (Gx= -0.68, Gy= 0.92, Gz= -1.32),   TEMP= 10.17 °F  
19:31:09.121 -> 
El tiempo es 0.009972 segundos 
195   (Ax= 1.03, Ay= -0.00, Az= -0.04),   (Gx= -0.80, Gy= 0.72, Gz= -1.08),   TEMP= 10.27 °F  
19:31:09.260 -> 
El tiempo es 0.009972 segundos 
196   (Ax= 1.03, Ay= 0.01, Az= -0.03),   (Gx= -1.08, Gy= 1.05, Gz= -1.23),   TEMP= 10.17 °F  
19:31:09.400 -> 
El tiempo es 0.009972 segundos 
197   (Ax= 1.03, Ay= 0.00, Az= -0.03),   (Gx= -0.83, Gy= 1.32, Gz= -1.31),   TEMP= 10.12 °F  
19:31:09.540 -> 
El tiempo es 0.009972 segundos 
198   (Ax= 1.02, Ay= 0.00, Az= -0.05),   (Gx= -0.67, Gy= 0.96, Gz= -0.73),   TEMP= 10.22 °F  
19:31:09.677 -> 
El tiempo es 0.009972 segundos 
199   (Ax= 1.03, Ay= 0.00, Az= -0.05),   (Gx= -0.97, Gy= 0.92, Gz= -0.97),   TEMP= 10.17 °F  
19:31:09.817 -> 
El tiempo es 0.009972 segundos 
200   (Ax= 1.03, Ay= 0.01, Az= -0.05),   (Gx= -1.08, Gy= 0.90, Gz= -1.22),   TEMP= 10.17 °F  
19:31:09.958 -> 
El tiempo es 0.009972 segundos 
201   (Ax= 1.03, Ay= 0.00, Az= -0.04),   (Gx= -1.01, Gy= 1.05, Gz= -1.19),   TEMP= 10.22 °F  
19:31:10.121 -> 
El tiempo es 0.009972 segundos 
202   (Ax= 1.03, Ay= 0.00, Az= -0.06),   (Gx= -1.06, Gy= 1.00, Gz= -1.14),   TEMP= 10.17 °F  
19:31:10.262 -> 
El tiempo es 0.009972 segundos 
203   (Ax= 1.03, Ay= -0.00, Az= -0.04),   (Gx= -0.81, Gy= 0.92, Gz= -1.09),   TEMP= 10.17 °F  
19:31:10.401 -> 
El tiempo es 0.009972 segundos 
204   (Ax= 1.03, Ay= 0.00, Az= -0.04),   (Gx= -0.98, Gy= 1.02, Gz= -1.31),   TEMP= 10.22 °F  
19:31:10.540 -> 
El tiempo es 0.009972 segundos 
205   (Ax= 1.03, Ay= 0.01, Az= -0.04),   (Gx= -0.80, Gy= 1.09, Gz= -1.30),   TEMP= 10.12 °F  
19:31:10.681 -> 
El tiempo es 0.009972 segundos 
206   (Ax= 1.03, Ay= 0.01, Az= -0.03),   (Gx= -1.05, Gy= 1.22, Gz= -1.25),   TEMP= 10.27 °F  
19:31:10.820 -> 
El tiempo es 0.009972 segundos 
207   (Ax= 1.03, Ay= 0.01, Az= -0.05),   (Gx= -0.91, Gy= 1.05, Gz= -1.13),   TEMP= 10.17 °F  
19:31:10.982 -> 
El tiempo es 0.009972 segundos 
208   (Ax= 1.02, Ay= 0.00, Az= -0.04),   (Gx= -1.03, Gy= 1.01, Gz= -1.17),   TEMP= 10.17 °F  
19:31:11.121 -> 
El tiempo es 0.009972 segundos 
209   (Ax= 1.03, Ay= 0.00, Az= -0.06),   (Gx= -1.00, Gy= 1.20, Gz= -1.24),   TEMP= 10.22 °F  
19:31:11.271 -> 
El tiempo es 0.009972 segundos 
210   (Ax= 1.03, Ay= 0.00, Az= -0.04),   (Gx= -0.82, Gy= 1.01, Gz= -1.27),   TEMP= 10.22 °F  
19:31:11.421 -> 
El tiempo es 0.009972 segundos 
211   (Ax= 1.03, Ay= 0.00, Az= -0.04),   (Gx= -0.89, Gy= 0.99, Gz= -1.16),   TEMP= 10.17 °F  
19:31:11.530 -> 
El tiempo es 0.009971 segundos 
212   (Ax= 1.03, Ay= -0.00, Az= -0.03),   (Gx= -0.92, Gy= 0.97, Gz= -1.17),   TEMP= 10.27 °F  
19:31:11.705 -> 
El tiempo es 0.009972 segundos 
213   (Ax= 1.03, Ay= 0.01, Az= -0.05),   (Gx= -0.89, Gy= 1.13, Gz= -1.23),   TEMP= 10.17 °F  
19:31:11.842 -> 
El tiempo es 0.009972 segundos 
214   (Ax= 1.03, Ay= 0.01, Az= -0.04),   (Gx= -0.82, Gy= 1.11, Gz= -1.05),   TEMP= 10.17 °F  
19:31:11.982 -> 
El tiempo es 0.009972 segundos 
215   (Ax= 1.03, Ay= 0.00, Az= -0.04),   (Gx= -0.91, Gy= 1.28, Gz= -1.27),   TEMP= 10.12 °F  
19:31:12.124 -> 
El tiempo es 0.009972 segundos 
216   (Ax= 1.02, Ay= 0.00, Az= -0.04),   (Gx= -0.79, Gy= 1.09, Gz= -1.09),   TEMP= 10.22 °F  
19:31:12.261 -> 
El tiempo es 0.009972 segundos 
217   (Ax= 1.03, Ay= 0.01, Az= -0.05),   (Gx= -0.93, Gy= 0.89, Gz= -1.21),   TEMP= 10.22 °F  
19:31:12.400 -> 
El tiempo es 0.009972 segundos 
218   (Ax= 1.03, Ay= 0.00, Az= -0.05),   (Gx= -1.02, Gy= 1.05, Gz= -1.13),   TEMP= 10.27 °F  
19:31:12.541 -> 
El tiempo es 0.009972 segundos 
219   (Ax= 1.03, Ay= 0.00, Az= -0.04),   (Gx= -0.95, Gy= 1.13, Gz= -1.42),   TEMP= 10.17 °F  
19:31:12.700 -> 
El tiempo es 0.009972 segundos 
220   (Ax= 1.03, Ay= 0.00, Az= -0.04),   (Gx= -0.95, Gy= 1.08, Gz= -1.20),   TEMP= 10.17 °F  
19:31:12.841 -> 
El tiempo es 0.009972 segundos 
221   (Ax= 1.03, Ay= 0.00, Az= -0.04),   (Gx= -0.89, Gy= 1.05, Gz= -1.23),   TEMP= 10.27 °F  
19:31:12.981 -> 
El tiempo es 0.009972 segundos 
222   (Ax= 1.03, Ay= 0.01, Az= -0.04),   (Gx= -0.96, Gy= 1.15, Gz= -1.47),   TEMP= 10.22 °F  
19:31:13.123 -> 
El tiempo es 0.009972 segundos 
223   (Ax= 1.02, Ay= 0.01, Az= -0.05),   (Gx= -0.83, Gy= 1.05, Gz= -1.21),   TEMP= 10.22 °F  
19:31:13.269 -> 
El tiempo es 0.009972 segundos 
224   (Ax= 1.04, Ay= 0.01, Az= -0.04),   (Gx= -1.04, Gy= 1.15, Gz= -1.35),   TEMP= 10.31 °F  
19:31:13.389 -> 
El tiempo es 0.009972 segundos 
225   (Ax= 1.04, Ay= 0.01, Az= -0.06),   (Gx= -0.75, Gy= 0.49, Gz= -1.38),   TEMP= 10.12 °F  
19:31:13.549 -> 
El tiempo es 0.009972 segundos 
226   (Ax= 1.03, Ay= 0.00, Az= -0.04),   (Gx= -1.13, Gy= 1.08, Gz= -1.20),   TEMP= 10.27 °F  
19:31:13.704 -> 
El tiempo es 0.009972 segundos 
227   (Ax= 1.03, Ay= 0.01, Az= -0.04),   (Gx= -0.82, Gy= 0.95, Gz= -1.12),   TEMP= 10.27 °F  
19:31:13.824 -> 
El tiempo es 0.009972 segundos 
228   (Ax= 1.03, Ay= -0.00, Az= -0.05),   (Gx= -0.91, Gy= 0.90, Gz= -1.34),   TEMP= 10.27 °F  
19:31:13.982 -> 
El tiempo es 0.009972 segundos 
229   (Ax= 1.04, Ay= 0.00, Az= -0.04),   (Gx= -0.88, Gy= 1.11, Gz= -1.12),   TEMP= 10.17 °F  
19:31:14.102 -> 
El tiempo es 0.009972 segundos 
230   (Ax= 1.03, Ay= 0.00, Az= -0.05),   (Gx= -0.76, Gy= 1.12, Gz= -1.23),   TEMP= 10.12 °F  
19:31:14.262 -> 
El tiempo es 0.009972 segundos 
231   (Ax= 1.03, Ay= 0.00, Az= -0.05),   (Gx= -0.72, Gy= 1.01, Gz= -1.11),   TEMP= 10.17 °F  
19:31:14.422 -> 
El tiempo es 0.009972 segundos 
232   (Ax= 1.03, Ay= 0.00, Az= -0.03),   (Gx= -0.85, Gy= 1.05, Gz= -1.19),   TEMP= 10.27 °F  
19:31:14.542 -> 
El tiempo es 0.009972 segundos 
233   (Ax= 1.03, Ay= 0.00, Az= -0.05),   (Gx= -0.82, Gy= 1.04, Gz= -1.25),   TEMP= 10.12 °F  
19:31:14.698 -> 
El tiempo es 0.009972 segundos 
234   (Ax= 1.03, Ay= 0.01, Az= -0.04),   (Gx= -0.97, Gy= 0.98, Gz= -1.23),   TEMP= 10.22 °F  
19:31:14.843 -> 
El tiempo es 0.009972 segundos 
235   (Ax= 1.03, Ay= 0.00, Az= -0.04),   (Gx= -0.78, Gy= 0.97, Gz= -1.17),   TEMP= 10.17 °F  
19:31:14.958 -> 
El tiempo es 0.009972 segundos 
236   (Ax= 1.04, Ay= 0.01, Az= -0.04),   (Gx= -0.80, Gy= 1.30, Gz= -1.14),   TEMP= 10.12 °F  
19:31:15.136 -> 
El tiempo es 0.009972 segundos 
237   (Ax= 1.03, Ay= 0.00, Az= -0.05),   (Gx= -0.89, Gy= 1.11, Gz= -1.24),   TEMP= 10.12 °F  
19:31:15.252 -> 
El tiempo es 0.009972 segundos 
238   (Ax= 1.03, Ay= 0.01, Az= -0.05),   (Gx= -0.85, Gy= 1.09, Gz= -1.43),   TEMP= 10.27 °F  
19:31:15.390 -> 
El tiempo es 0.009972 segundos 
239   (Ax= 1.03, Ay= 0.01, Az= -0.05),   (Gx= -0.66, Gy= 1.21, Gz= -1.31),   TEMP= 10.22 °F  
19:31:15.530 -> 
El tiempo es 0.009972 segundos 
240   (Ax= 1.03, Ay= 0.01, Az= -0.04),   (Gx= -0.82, Gy= 1.33, Gz= -1.27),   TEMP= 10.22 °F  
19:31:15.703 -> 
El tiempo es 0.009971 segundos 
241   (Ax= 1.03, Ay= 0.00, Az= -0.04),   (Gx= -0.88, Gy= 1.19, Gz= -1.33),   TEMP= 10.27 °F  
19:31:15.843 -> 
El tiempo es 0.009972 segundos 
242   (Ax= 1.03, Ay= 0.00, Az= -0.04),   (Gx= -0.86, Gy= 1.42, Gz= -1.17),   TEMP= 10.27 °F  
19:31:15.982 -> 
El tiempo es 0.009972 segundos 
243   (Ax= 1.02, Ay= 0.01, Az= -0.06),   (Gx= -0.76, Gy= 0.49, Gz= -0.98),   TEMP= 10.31 °F  
19:31:16.121 -> 
El tiempo es 0.009972 segundos 
244   (Ax= 1.02, Ay= 0.00, Az= -0.03),   (Gx= -0.76, Gy= 0.98, Gz= -1.23),   TEMP= 10.22 °F  
19:31:16.280 -> 
El tiempo es 0.009973 segundos 
245   (Ax= 1.02, Ay= 0.00, Az= -0.03),   (Gx= -1.05, Gy= 1.25, Gz= -1.21),   TEMP= 10.17 °F  
19:31:16.399 -> 
El tiempo es 0.009972 segundos 
246   (Ax= 1.03, Ay= 0.00, Az= -0.04),   (Gx= -0.84, Gy= 0.75, Gz= -1.17),   TEMP= 10.17 °F  
19:31:16.543 -> 
El tiempo es 0.009972 segundos 
247   (Ax= 1.03, Ay= 0.00, Az= -0.05),   (Gx= -0.65, Gy= 1.06, Gz= -1.10),   TEMP= 10.22 °F  
19:31:16.683 -> 
El tiempo es 0.009973 segundos 
248   (Ax= 1.03, Ay= 0.00, Az= -0.04),   (Gx= -0.69, Gy= 0.95, Gz= -1.27),   TEMP= 10.22 °F  
19:31:16.823 -> 
El tiempo es 0.009972 segundos 
249   (Ax= 1.04, Ay= 0.00, Az= -0.04),   (Gx= -1.05, Gy= 1.16, Gz= -1.08),   TEMP= 10.27 °F  
19:31:16.962 -> 
El tiempo es 0.009976 segundos 
250   (Ax= 1.03, Ay= -0.00, Az= -0.04),   (Gx= -0.91, Gy= 1.40, Gz= -1.06),   TEMP= 10.17 °F  
19:31:17.136 -> 
El tiempo es 0.009972 segundos 
251   (Ax= 1.03, Ay= -0.00, Az= -0.04),   (Gx= -0.94, Gy= 1.13, Gz= -1.13),   TEMP= 10.17 °F  
19:31:17.277 -> 
El tiempo es 0.009972 segundos 
252   (Ax= 1.02, Ay= 0.00, Az= -0.05),   (Gx= -0.78, Gy= 1.21, Gz= -1.20),   TEMP= 10.17 °F  
19:31:17.400 -> 
El tiempo es 0.009971 segundos 
253   (Ax= 1.04, Ay= -0.00, Az= -0.04),   (Gx= -1.01, Gy= 1.92, Gz= -1.33),   TEMP= 10.07 °F  
19:31:17.549 -> 
El tiempo es 0.009972 segundos 
254   (Ax= 1.03, Ay= -0.00, Az= -0.04),   (Gx= -0.89, Gy= 0.98, Gz= -1.11),   TEMP= 10.27 °F  
19:31:17.697 -> 
El tiempo es 0.009972 segundos 
255   (Ax= 1.03, Ay= -0.00, Az= -0.03),   (Gx= -1.06, Gy= 1.26, Gz= -1.45),   TEMP= 10.17 °F  
19:31:17.839 -> 
El tiempo es 0.009972 segundos 
256   (Ax= 1.03, Ay= -0.00, Az= -0.04),   (Gx= -0.91, Gy= 1.44, Gz= -1.43),   TEMP= 10.17 °F  
19:31:17.978 -> 
El tiempo es 0.009977 segundos 
257   (Ax= 1.03, Ay= -0.00, Az= -0.05),   (Gx= -0.92, Gy= 1.06, Gz= -1.35),   TEMP= 10.17 °F  
19:31:18.115 -> 
El tiempo es 0.009972 segundos 
258   (Ax= 1.03, Ay= 0.00, Az= -0.04),   (Gx= -1.02, Gy= 1.14, Gz= -1.31),   TEMP= 10.17 °F  
19:31:18.251 -> 
El tiempo es 0.009972 segundos 
259   (Ax= 1.02, Ay= 0.01, Az= -0.04),   (Gx= -1.01, Gy= 1.22, Gz= -1.04),   TEMP= 10.17 °F  
19:31:18.396 -> 
El tiempo es 0.009972 segundos 
260   (Ax= 1.04, Ay= -0.00, Az= -0.04),   (Gx= -0.96, Gy= 1.23, Gz= -1.16),   TEMP= 10.22 °F  
19:31:18.569 -> 
El tiempo es 0.009972 segundos 
261   (Ax= 1.03, Ay= -0.00, Az= -0.03),   (Gx= -0.98, Gy= 0.93, Gz= -1.11),   TEMP= 10.22 °F  
19:31:18.708 -> 
El tiempo es 0.009971 segundos 
262   (Ax= 1.04, Ay= -0.00, Az= -0.04),   (Gx= -0.92, Gy= 1.08, Gz= -1.22),   TEMP= 10.27 °F  
19:31:18.826 -> 
El tiempo es 0.009972 segundos 
263   (Ax= 1.03, Ay= -0.00, Az= -0.03),   (Gx= -0.88, Gy= 0.76, Gz= -0.98),   TEMP= 10.27 °F  
19:31:18.979 -> 
El tiempo es 0.009972 segundos 
264   (Ax= 1.03, Ay= 0.00, Az= -0.04),   (Gx= -0.76, Gy= 1.00, Gz= -1.14),   TEMP= 10.22 °F  
19:31:19.116 -> 
El tiempo es 0.009972 segundos 
265   (Ax= 1.03, Ay= 0.00, Az= -0.04),   (Gx= -0.86, Gy= 1.20, Gz= -0.99),   TEMP= 10.22 °F  
19:31:19.287 -> 
El tiempo es 0.009972 segundos 
266   (Ax= 1.03, Ay= 0.00, Az= -0.05),   (Gx= -0.82, Gy= 1.21, Gz= -1.17),   TEMP= 10.12 °F  
19:31:19.429 -> 
El tiempo es 0.009972 segundos 
267   (Ax= 1.03, Ay= 0.00, Az= -0.04),   (Gx= -0.92, Gy= 0.99, Gz= -1.34),   TEMP= 10.27 °F  
19:31:19.543 -> 
El tiempo es 0.009972 segundos 
268   (Ax= 1.03, Ay= 0.00, Az= -0.05),   (Gx= -0.95, Gy= 1.18, Gz= -1.34),   TEMP= 10.17 °F  
19:31:19.683 -> 
El tiempo es 0.009972 segundos 
269   (Ax= 1.03, Ay= -0.00, Az= -0.04),   (Gx= -0.78, Gy= 1.08, Gz= -1.24),   TEMP= 10.17 °F  
19:31:19.854 -> 
El tiempo es 0.009972 segundos 
270   (Ax= 1.03, Ay= 0.00, Az= -0.03),   (Gx= -0.86, Gy= 1.20, Gz= -1.27),   TEMP= 10.17 °F  
19:31:20.008 -> 
El tiempo es 0.009972 segundos 
271   (Ax= 1.03, Ay= 0.01, Az= -0.05),   (Gx= -0.77, Gy= 0.89, Gz= -1.43),   TEMP= 10.27 °F  
19:31:20.124 -> 
El tiempo es 0.009973 segundos 
272   (Ax= 1.03, Ay= 0.00, Az= -0.05),   (Gx= -0.92, Gy= 1.41, Gz= -1.14),   TEMP= 10.22 °F  
19:31:20.263 -> 
El tiempo es 0.009973 segundos 
273   (Ax= 1.03, Ay= 0.00, Az= -0.04),   (Gx= -0.85, Gy= 1.00, Gz= -0.96),   TEMP= 10.22 °F  
19:31:20.400 -> 
El tiempo es 0.009972 segundos 
274   (Ax= 1.04, Ay= 0.00, Az= -0.03),   (Gx= -1.01, Gy= 1.18, Gz= -1.15),   TEMP= 10.22 °F  
19:31:20.573 -> 
El tiempo es 0.009983 segundos 
275   (Ax= 1.03, Ay= -0.00, Az= -0.04),   (Gx= -0.97, Gy= 1.45, Gz= -1.27),   TEMP= 10.17 °F  
19:31:20.713 -> 
El tiempo es 0.009972 segundos 
276   (Ax= 1.03, Ay= 0.00, Az= -0.05),   (Gx= -1.07, Gy= 0.91, Gz= -1.21),   TEMP= 10.22 °F  
19:31:20.852 -> 
El tiempo es 0.009972 segundos 
277   (Ax= 1.02, Ay= 0.00, Az= -0.05),   (Gx= -0.86, Gy= 1.07, Gz= -1.21),   TEMP= 10.22 °F  
19:31:20.992 -> 
El tiempo es 0.009972 segundos 
278   (Ax= 1.03, Ay= 0.00, Az= -0.04),   (Gx= -0.96, Gy= 1.16, Gz= -1.14),   TEMP= 10.17 °F  
19:31:21.130 -> 
El tiempo es 0.009972 segundos 
279   (Ax= 1.03, Ay= 0.00, Az= -0.05),   (Gx= -0.85, Gy= 1.10, Gz= -1.06),   TEMP= 10.17 °F  
19:31:21.274 -> 
El tiempo es 0.009972 segundos 
280   (Ax= 1.00, Ay= 0.02, Az= -0.10),   (Gx= -0.60, Gy= 2.00, Gz= -0.90),   TEMP= 10.27 °F  
19:31:21.402 -> 
El tiempo es 0.009972 segundos 
281   (Ax= 1.02, Ay= 0.01, Az= -0.03),   (Gx= -0.87, Gy= 0.76, Gz= -1.18),   TEMP= 10.22 °F  
19:31:21.544 -> 
El tiempo es 0.009972 segundos 
282   (Ax= 1.03, Ay= 0.00, Az= -0.05),   (Gx= -1.03, Gy= 1.27, Gz= -1.18),   TEMP= 10.31 °F  
19:31:21.716 -> 
El tiempo es 0.009972 segundos 
283   (Ax= 1.04, Ay= 0.00, Az= -0.04),   (Gx= -0.71, Gy= 1.70, Gz= -1.56),   TEMP= 10.12 °F  
19:31:21.852 -> 
El tiempo es 0.009972 segundos 
284   (Ax= 1.03, Ay= 0.00, Az= -0.05),   (Gx= -0.94, Gy= 1.34, Gz= -1.34),   TEMP= 10.27 °F  
19:31:21.990 -> 
El tiempo es 0.009972 segundos 
285   (Ax= 1.03, Ay= -0.01, Az= -0.04),   (Gx= -1.04, Gy= 1.35, Gz= -0.95),   TEMP= 10.27 °F  
19:31:22.128 -> 
El tiempo es 0.009972 segundos 
286   (Ax= 1.03, Ay= 0.00, Az= -0.04),   (Gx= -0.95, Gy= 0.72, Gz= -1.12),   TEMP= 10.27 °F  
19:31:22.267 -> 
El tiempo es 0.009972 segundos 
287   (Ax= 1.03, Ay= 0.00, Az= -0.03),   (Gx= -0.65, Gy= 1.04, Gz= -1.21),   TEMP= 10.17 °F  
19:31:22.405 -> 
El tiempo es 0.009972 segundos 
288   (Ax= 1.03, Ay= -0.00, Az= -0.03),   (Gx= -0.98, Gy= 0.99, Gz= -1.62),   TEMP= 10.17 °F  
19:31:22.543 -> 
El tiempo es 0.009973 segundos 
289   (Ax= 1.03, Ay= -0.00, Az= -0.05),   (Gx= -1.21, Gy= 0.97, Gz= -1.24),   TEMP= 10.07 °F  
19:31:22.718 -> 
El tiempo es 0.009972 segundos 
290   (Ax= 1.03, Ay= -0.00, Az= -0.03),   (Gx= -1.09, Gy= 1.14, Gz= -1.37),   TEMP= 10.22 °F  
19:31:22.858 -> 
El tiempo es 0.009972 segundos 
291   (Ax= 1.02, Ay= 0.01, Az= -0.04),   (Gx= -1.02, Gy= 1.12, Gz= -1.23),   TEMP= 10.22 °F  
19:31:22.999 -> 
El tiempo es 0.009972 segundos 
292   (Ax= 1.03, Ay= 0.00, Az= -0.05),   (Gx= -0.85, Gy= 0.95, Gz= -1.11),   TEMP= 10.12 °F  
19:31:23.136 -> 
El tiempo es 0.009972 segundos 
293   (Ax= 1.03, Ay= 0.00, Az= -0.04),   (Gx= -0.98, Gy= 1.18, Gz= -1.03),   TEMP= 10.27 °F  
19:31:23.274 -> 
El tiempo es 0.009972 segundos 
294   (Ax= 1.03, Ay= 0.00, Az= -0.05),   (Gx= -1.05, Gy= 1.15, Gz= -1.33),   TEMP= 10.17 °F  
19:31:23.412 -> 
El tiempo es 0.009973 segundos 
295   (Ax= 1.03, Ay= 0.01, Az= -0.04),   (Gx= -0.85, Gy= 0.88, Gz= -1.21),   TEMP= 10.17 °F  
19:31:23.551 -> 
El tiempo es 0.009972 segundos 
296   (Ax= 1.03, Ay= 0.00, Az= -0.04),   (Gx= -0.80, Gy= 0.91, Gz= -1.16),   TEMP= 10.27 °F  
19:31:23.689 -> 
El tiempo es 0.009972 segundos 
297   (Ax= 1.03, Ay= 0.00, Az= -0.04),   (Gx= -0.90, Gy= 1.08, Gz= -1.29),   TEMP= 10.17 °F  
19:31:23.863 -> 
El tiempo es 0.009971 segundos 
298   (Ax= 1.02, Ay= 0.00, Az= -0.04),   (Gx= -0.76, Gy= 1.19, Gz= -1.27),   TEMP= 10.31 °F  
19:31:24.001 -> 
El tiempo es 0.009973 segundos 
299   (Ax= 1.03, Ay= 0.00, Az= -0.05),   (Gx= -0.96, Gy= 0.96, Gz= -1.21),   TEMP= 10.22 °F  
19:31:24.139 -> 
El tiempo es 0.009971 segundos 
300   (Ax= 1.03, Ay= 0.00, Az= -0.05),   (Gx= -0.92, Gy= 0.96, Gz= -1.27),   TEMP= 10.17 °F  
19:31:24.276 -> 
El tiempo es 0.009972 segundos 
301   (Ax= 1.03, Ay= 0.00, Az= -0.04),   (Gx= -0.85, Gy= 0.90, Gz= -1.11),   TEMP= 10.17 °F  
19:31:24.415 -> 
El tiempo es 0.009972 segundos 
302   (Ax= 1.03, Ay= 0.00, Az= -0.04),   (Gx= -0.92, Gy= 1.13, Gz= -1.10),   TEMP= 10.27 °F  
19:31:24.553 -> 
El tiempo es 0.009972 segundos 
303   (Ax= 1.03, Ay= 0.00, Az= -0.04),   (Gx= -0.88, Gy= 1.15, Gz= -1.25),   TEMP= 10.17 °F  
19:31:24.691 -> 
El tiempo es 0.009972 segundos 
304   (Ax= 1.04, Ay= -0.00, Az= -0.04),   (Gx= -1.25, Gy= 1.38, Gz= -1.40),   TEMP= 10.31 °F  
19:31:24.831 -> 
El tiempo es 0.009972 segundos 
305   (Ax= 1.03, Ay= 0.00, Az= -0.04),   (Gx= -1.13, Gy= 1.15, Gz= -1.11),   TEMP= 10.22 °F  
19:31:25.005 -> 
El tiempo es 0.009972 segundos 
306   (Ax= 1.04, Ay= 0.01, Az= -0.03),   (Gx= -0.96, Gy= 0.85, Gz= -1.24),   TEMP= 10.12 °F  
19:31:25.144 -> 
El tiempo es 0.009972 segundos 
307   (Ax= 1.04, Ay= -0.00, Az= -0.04),   (Gx= -0.99, Gy= 1.08, Gz= -1.46),   TEMP= 10.27 °F  
19:31:25.281 -> 
El tiempo es 0.009972 segundos 
308   (Ax= 1.03, Ay= 0.00, Az= -0.04),   (Gx= -0.93, Gy= 1.03, Gz= -1.18),   TEMP= 10.22 °F  
19:31:25.418 -> 
El tiempo es 0.009973 segundos 
309   (Ax= 1.03, Ay= 0.00, Az= -0.04),   (Gx= -0.92, Gy= 0.98, Gz= -1.19),   TEMP= 10.22 °F  
19:31:25.558 -> 
El tiempo es 0.009973 segundos 
310   (Ax= 1.03, Ay= 0.00, Az= -0.04),   (Gx= -1.11, Gy= 1.17, Gz= -1.12),   TEMP= 10.17 °F  
19:31:25.696 -> 
El tiempo es 0.009972 segundos 
311   (Ax= 1.02, Ay= 0.00, Az= -0.05),   (Gx= -0.79, Gy= 1.34, Gz= -1.18),   TEMP= 10.17 °F  
19:31:25.836 -> 
El tiempo es 0.009972 segundos 
312   (Ax= 1.03, Ay= -0.00, Az= -0.05),   (Gx= -0.91, Gy= 1.07, Gz= -1.23),   TEMP= 10.27 °F  
19:31:26.010 -> 
El tiempo es 0.009972 segundos 
313   (Ax= 1.03, Ay= 0.00, Az= -0.05),   (Gx= -0.94, Gy= 1.15, Gz= -1.13),   TEMP= 10.27 °F  
19:31:26.154 -> 
El tiempo es 0.009973 segundos 
314   (Ax= 1.03, Ay= 0.00, Az= -0.05),   (Gx= -0.98, Gy= 1.12, Gz= -1.32),   TEMP= 10.22 °F  
19:31:26.274 -> 
El tiempo es 0.009972 segundos 
315   (Ax= 1.02, Ay= 0.00, Az= -0.04),   (Gx= -0.80, Gy= 1.10, Gz= -1.20),   TEMP= 10.31 °F  
19:31:26.434 -> 
El tiempo es 0.009972 segundos 
316   (Ax= 1.03, Ay= 0.00, Az= -0.04),   (Gx= -0.83, Gy= 1.18, Gz= -1.32),   TEMP= 10.31 °F  
19:31:26.556 -> 
El tiempo es 0.009972 segundos 
317   (Ax= 1.03, Ay= -0.00, Az= -0.04),   (Gx= -0.92, Gy= 1.24, Gz= -1.45),   TEMP= 10.22 °F  
19:31:26.716 -> 
El tiempo es 0.009972 segundos 
318   (Ax= 1.03, Ay= 0.00, Az= -0.06),   (Gx= -0.95, Gy= 1.30, Gz= -1.19),   TEMP= 10.17 °F  
19:31:26.836 -> 
El tiempo es 0.009973 segundos 
319   (Ax= 1.04, Ay= 0.00, Az= -0.04),   (Gx= -0.73, Gy= 1.04, Gz= -0.91),   TEMP= 10.27 °F  
19:31:26.996 -> 
El tiempo es 0.009972 segundos 
320   (Ax= 1.03, Ay= 0.01, Az= -0.04),   (Gx= -0.94, Gy= 1.44, Gz= -0.80),   TEMP= 10.27 °F  
19:31:27.156 -> 
El tiempo es 0.009973 segundos 
321   (Ax= 1.03, Ay= 0.00, Az= -0.03),   (Gx= -0.86, Gy= 1.24, Gz= -1.32),   TEMP= 10.36 °F  
19:31:27.276 -> 
El tiempo es 0.009972 segundos 
322   (Ax= 1.03, Ay= 0.00, Az= -0.06),   (Gx= -0.98, Gy= 1.05, Gz= -1.03),   TEMP= 10.17 °F  
19:31:27.436 -> 
El tiempo es 0.009973 segundos 
323   (Ax= 1.03, Ay= -0.00, Az= -0.04),   (Gx= -0.86, Gy= 1.08, Gz= -1.14),   TEMP= 10.31 °F  
19:31:27.556 -> 
El tiempo es 0.009972 segundos 
324   (Ax= 1.03, Ay= 0.00, Az= -0.04),   (Gx= -1.15, Gy= 1.01, Gz= -1.47),   TEMP= 10.22 °F  
19:31:27.716 -> 
El tiempo es 0.009972 segundos 
325   (Ax= 1.03, Ay= 0.00, Az= -0.03),   (Gx= -0.79, Gy= 0.97, Gz= -1.11),   TEMP= 10.17 °F  
19:31:27.841 -> 
El tiempo es 0.009972 segundos 
326   (Ax= 1.03, Ay= 0.01, Az= -0.04),   (Gx= -1.01, Gy= 1.14, Gz= -1.13),   TEMP= 10.17 °F  
19:31:28.001 -> 
El tiempo es 0.009972 segundos 
327   (Ax= 1.03, Ay= 0.00, Az= -0.04),   (Gx= -0.78, Gy= 0.53, Gz= -1.01),   TEMP= 10.17 °F  
19:31:28.121 -> 
El tiempo es 0.009972 segundos 
328   (Ax= 1.02, Ay= 0.01, Az= -0.05),   (Gx= -0.91, Gy= 1.30, Gz= -1.45),   TEMP= 10.22 °F  
19:31:28.281 -> 
El tiempo es 0.009972 segundos 
329   (Ax= 1.03, Ay= -0.00, Az= -0.04),   (Gx= -0.76, Gy= 0.77, Gz= -1.19),   TEMP= 10.22 °F  
19:31:28.441 -> 
El tiempo es 0.009973 segundos 
330   (Ax= 1.03, Ay= -0.00, Az= -0.03),   (Gx= -0.91, Gy= 1.07, Gz= -1.47),   TEMP= 10.22 °F  
19:31:28.561 -> 
El tiempo es 0.009972 segundos 
331   (Ax= 1.04, Ay= 0.00, Az= -0.05),   (Gx= -0.69, Gy= 0.75, Gz= -1.08),   TEMP= 10.22 °F  
19:31:28.721 -> 
El tiempo es 0.009972 segundos 
332   (Ax= 1.03, Ay= -0.00, Az= -0.05),   (Gx= -0.99, Gy= 0.91, Gz= -1.01),   TEMP= 10.17 °F  
19:31:28.841 -> 
El tiempo es 0.009972 segundos 
333   (Ax= 1.04, Ay= -0.00, Az= -0.05),   (Gx= -0.88, Gy= 1.12, Gz= -1.26),   TEMP= 10.22 °F  
19:31:29.001 -> 
El tiempo es 0.009972 segundos 
334   (Ax= 1.02, Ay= 0.00, Az= -0.04),   (Gx= -0.97, Gy= 0.97, Gz= -1.20),   TEMP= 10.17 °F  
19:31:29.162 -> 
El tiempo es 0.009972 segundos 
335   (Ax= 1.03, Ay= 0.00, Az= -0.04),   (Gx= -1.08, Gy= 0.98, Gz= -1.16),   TEMP= 10.27 °F  
19:31:29.282 -> 
El tiempo es 0.009972 segundos 
336   (Ax= 1.04, Ay= -0.00, Az= -0.05),   (Gx= -0.88, Gy= 1.19, Gz= -1.21),   TEMP= 10.22 °F  
19:31:29.442 -> 
El tiempo es 0.009973 segundos 
337   (Ax= 1.02, Ay= -0.00, Az= -0.04),   (Gx= -1.08, Gy= 1.24, Gz= -1.12),   TEMP= 10.22 °F  
19:31:29.562 -> 
El tiempo es 0.009972 segundos 
338   (Ax= 1.03, Ay= 0.00, Az= -0.04),   (Gx= -0.72, Gy= 1.03, Gz= -1.38),   TEMP= 10.22 °F  
19:31:29.722 -> 
El tiempo es 0.009972 segundos 
339   (Ax= 1.03, Ay= -0.01, Az= -0.04),   (Gx= -0.88, Gy= 1.30, Gz= -1.27),   TEMP= 10.31 °F  
19:31:29.842 -> 
El tiempo es 0.009972 segundos 
340   (Ax= 1.03, Ay= 0.00, Az= -0.04),   (Gx= -0.98, Gy= 0.99, Gz= -1.14),   TEMP= 10.22 °F  
19:31:30.002 -> 
El tiempo es 0.009972 segundos 
341   (Ax= 1.02, Ay= 0.01, Az= -0.04),   (Gx= -0.95, Gy= 0.91, Gz= -0.85),   TEMP= 10.22 °F  
19:31:30.162 -> 
El tiempo es 0.009972 segundos 
342   (Ax= 1.03, Ay= -0.00, Az= -0.03),   (Gx= -0.82, Gy= 1.24, Gz= -1.23),   TEMP= 10.27 °F  
19:31:30.280 -> 
El tiempo es 0.009973 segundos 
343   (Ax= 1.03, Ay= 0.00, Az= -0.05),   (Gx= -0.82, Gy= 1.37, Gz= -1.54),   TEMP= 10.27 °F  
19:31:30.440 -> 
El tiempo es 0.009972 segundos 
344   (Ax= 0.97, Ay= 0.02, Az= -0.08),   (Gx= -1.03, Gy= 2.64, Gz= -2.24),   TEMP= 10.27 °F  
19:31:30.560 -> 
El tiempo es 0.009972 segundos 
345   (Ax= 1.08, Ay= 0.06, Az= -0.15),   (Gx= -2.49, Gy= 3.14, Gz= -2.86),   TEMP= 10.31 °F  
19:31:30.720 -> 
El tiempo es 0.009972 segundos 
346   (Ax= 1.05, Ay= 0.07, Az= -0.04),   (Gx= -0.09, Gy= -1.53, Gz= -1.14),   TEMP= 10.17 °F  
19:31:30.880 -> 
El tiempo es 0.009972 segundos 
347   (Ax= 1.04, Ay= 0.02, Az= 0.00),   (Gx= -1.03, Gy= 0.64, Gz= -1.25),   TEMP= 10.27 °F  
19:31:31.000 -> 
El tiempo es 0.009972 segundos 
348   (Ax= 1.03, Ay= 0.01, Az= -0.04),   (Gx= -1.07, Gy= 1.43, Gz= -1.32),   TEMP= 10.12 °F  
19:31:31.160 -> 
El tiempo es 0.009972 segundos 
349   (Ax= 1.03, Ay= 0.01, Az= -0.06),   (Gx= -0.93, Gy= 1.11, Gz= -1.19),   TEMP= 10.22 °F  
19:31:31.280 -> 
El tiempo es 0.009972 segundos 
350   (Ax= 1.03, Ay= 0.01, Az= -0.04),   (Gx= -0.73, Gy= 0.80, Gz= -1.11),   TEMP= 10.12 °F  
19:31:31.440 -> 
El tiempo es 0.009972 segundos 
351   (Ax= 1.03, Ay= 0.00, Az= -0.03),   (Gx= -0.68, Gy= 1.01, Gz= -1.04),   TEMP= 10.17 °F  
19:31:31.558 -> 
El tiempo es 0.009972 segundos 
352   (Ax= 1.03, Ay= -0.00, Az= -0.03),   (Gx= -0.82, Gy= 1.42, Gz= -1.04),   TEMP= 10.27 °F  
19:31:31.718 -> 
El tiempo es 0.009972 segundos 
353   (Ax= 1.03, Ay= 0.00, Az= -0.04),   (Gx= -1.00, Gy= 1.22, Gz= -1.17),   TEMP= 10.27 °F  
19:31:31.878 -> 
El tiempo es 0.009972 segundos 
354   (Ax= 1.03, Ay= 0.00, Az= -0.05),   (Gx= -0.93, Gy= 1.11, Gz= -1.26),   TEMP= 10.17 °F  
19:31:31.998 -> 
El tiempo es 0.009973 segundos 
355   (Ax= 1.03, Ay= -0.00, Az= -0.04),   (Gx= -1.00, Gy= 0.92, Gz= -1.09),   TEMP= 10.22 °F  
19:31:32.158 -> 
El tiempo es 0.009972 segundos 
356   (Ax= 1.02, Ay= 0.00, Az= -0.04),   (Gx= -0.93, Gy= 1.11, Gz= -1.14),   TEMP= 10.22 °F  
19:31:32.278 -> 
El tiempo es 0.009972 segundos 
357   (Ax= 1.02, Ay= 0.01, Az= -0.03),   (Gx= -0.93, Gy= 1.32, Gz= -1.29),   TEMP= 10.17 °F  
19:31:32.438 -> 
El tiempo es 0.009972 segundos 
358   (Ax= 1.03, Ay= 0.01, Az= -0.03),   (Gx= -0.93, Gy= 1.36, Gz= -1.21),   TEMP= 10.27 °F  
19:31:32.558 -> 
El tiempo es 0.009972 segundos 
359   (Ax= 1.03, Ay= 0.01, Az= -0.04),   (Gx= -0.88, Gy= 1.01, Gz= -1.26),   TEMP= 10.22 °F  
19:31:32.719 -> 
El tiempo es 0.009972 segundos 
360   (Ax= 1.03, Ay= 0.00, Az= -0.04),   (Gx= -0.83, Gy= 0.95, Gz= -1.19),   TEMP= 10.27 °F  
19:31:32.879 -> 
El tiempo es 0.009972 segundos 
361   (Ax= 1.03, Ay= 0.00, Az= -0.03),   (Gx= -0.96, Gy= 0.98, Gz= -1.14),   TEMP= 10.17 °F  
19:31:32.999 -> 
El tiempo es 0.009973 segundos 
362   (Ax= 1.03, Ay= 0.00, Az= -0.03),   (Gx= -0.98, Gy= 1.01, Gz= -1.28),   TEMP= 10.22 °F  
19:31:33.159 -> 
El tiempo es 0.009973 segundos 
363   (Ax= 1.03, Ay= 0.01, Az= -0.04),   (Gx= -0.98, Gy= 1.01, Gz= -1.39),   TEMP= 10.22 °F  
19:31:33.279 -> 
El tiempo es 0.009973 segundos 
364   (Ax= 1.03, Ay= 0.00, Az= -0.04),   (Gx= -0.98, Gy= 1.05, Gz= -1.21),   TEMP= 10.22 °F  
19:31:33.439 -> 
El tiempo es 0.009972 segundos 
365   (Ax= 1.03, Ay= 0.00, Az= -0.03),   (Gx= -0.96, Gy= 0.96, Gz= -1.31),   TEMP= 10.17 °F  
19:31:33.559 -> 
El tiempo es 0.009972 segundos 
366   (Ax= 1.02, Ay= 0.01, Az= -0.03),   (Gx= -0.97, Gy= 1.21, Gz= -1.20),   TEMP= 10.27 °F  
19:31:33.719 -> 
El tiempo es 0.009973 segundos 
367   (Ax= 1.03, Ay= 0.01, Az= -0.05),   (Gx= -0.76, Gy= 1.14, Gz= -1.14),   TEMP= 10.22 °F  
19:31:33.879 -> 
El tiempo es 0.009973 segundos 
368   (Ax= 1.03, Ay= 0.00, Az= -0.05),   (Gx= -0.96, Gy= 1.23, Gz= -1.18),   TEMP= 10.22 °F  
19:31:33.998 -> 
El tiempo es 0.009972 segundos 
369   (Ax= 1.03, Ay= 0.01, Az= -0.04),   (Gx= -1.07, Gy= 1.06, Gz= -1.08),   TEMP= 10.17 °F  
19:31:34.158 -> 
El tiempo es 0.009972 segundos 
370   (Ax= 1.03, Ay= 0.01, Az= -0.04),   (Gx= -0.78, Gy= 0.99, Gz= -1.34),   TEMP= 10.17 °F  
19:31:34.278 -> 
El tiempo es 0.009972 segundos 
371   (Ax= 1.03, Ay= 0.01, Az= -0.04),   (Gx= -1.15, Gy= 1.05, Gz= -1.17),   TEMP= 10.22 °F  
19:31:34.438 -> 
El tiempo es 0.009972 segundos 
372   (Ax= 1.03, Ay= 0.00, Az= -0.04),   (Gx= -0.98, Gy= 1.12, Gz= -1.30),   TEMP= 10.17 °F  
19:31:34.558 -> 
El tiempo es 0.009972 segundos 
373   (Ax= 1.03, Ay= 0.00, Az= -0.04),   (Gx= -0.91, Gy= 1.17, Gz= -1.19),   TEMP= 10.17 °F  
19:31:34.718 -> 
El tiempo es 0.009972 segundos 
374   (Ax= 1.03, Ay= 0.01, Az= -0.03),   (Gx= -0.98, Gy= 1.08, Gz= -1.10),   TEMP= 10.31 °F  
19:31:34.878 -> 
El tiempo es 0.009972 segundos 
375   (Ax= 1.03, Ay= 0.00, Az= -0.05),   (Gx= -0.76, Gy= 1.30, Gz= -1.08),   TEMP= 10.22 °F  
19:31:34.998 -> 
El tiempo es 0.009972 segundos 
376   (Ax= 1.03, Ay= 0.00, Az= -0.04),   (Gx= -0.82, Gy= 1.09, Gz= -1.37),   TEMP= 10.22 °F  
19:31:35.158 -> 
El tiempo es 0.009972 segundos 
377   (Ax= 1.02, Ay= 0.00, Az= -0.04),   (Gx= -0.73, Gy= 1.06, Gz= -0.82),   TEMP= 10.17 °F  
19:31:35.278 -> 
El tiempo es 0.009979 segundos 
378   (Ax= 1.03, Ay= 0.00, Az= -0.04),   (Gx= -0.98, Gy= 1.24, Gz= -1.05),   TEMP= 10.27 °F  
19:31:35.438 -> 
El tiempo es 0.009972 segundos 
379   (Ax= 1.04, Ay= 0.01, Az= -0.04),   (Gx= -0.98, Gy= 1.06, Gz= -1.22),   TEMP= 10.31 °F  
19:31:35.558 -> 
El tiempo es 0.009972 segundos 
380   (Ax= 1.03, Ay= 0.01, Az= -0.03),   (Gx= -0.80, Gy= 1.05, Gz= -1.28),   TEMP= 10.12 °F  
19:31:35.718 -> 
El tiempo es 0.009972 segundos 
381   (Ax= 1.03, Ay= 0.00, Az= -0.04),   (Gx= -0.79, Gy= 1.22, Gz= -1.44),   TEMP= 10.22 °F  
19:31:35.877 -> 
El tiempo es 0.009971 segundos 
382   (Ax= 1.03, Ay= 0.00, Az= -0.03),   (Gx= -1.14, Gy= 0.98, Gz= -1.14),   TEMP= 10.27 °F  
19:31:35.997 -> 
El tiempo es 0.009972 segundos 
383   (Ax= 1.03, Ay= 0.00, Az= -0.05),   (Gx= -0.84, Gy= 1.06, Gz= -1.12),   TEMP= 10.27 °F  
19:31:36.157 -> 
El tiempo es 0.009972 segundos 
384   (Ax= 1.03, Ay= 0.00, Az= -0.04),   (Gx= -0.76, Gy= 1.21, Gz= -1.23),   TEMP= 10.12 °F  
19:31:36.277 -> 
El tiempo es 0.009972 segundos 
385   (Ax= 1.04, Ay= 0.00, Az= -0.04),   (Gx= -1.00, Gy= 1.02, Gz= -1.11),   TEMP= 10.27 °F  
19:31:36.436 -> 
El tiempo es 0.009972 segundos 
386   (Ax= 1.03, Ay= 0.00, Az= -0.04),   (Gx= -0.87, Gy= 1.14, Gz= -1.06),   TEMP= 10.07 °F  
19:31:36.596 -> 
El tiempo es 0.009973 segundos 
387   (Ax= 1.03, Ay= 0.01, Az= -0.04),   (Gx= -0.89, Gy= 1.12, Gz= -1.23),   TEMP= 10.17 °F  
19:31:36.716 -> 
El tiempo es 0.009972 segundos 
388   (Ax= 1.02, Ay= 0.00, Az= -0.04),   (Gx= -0.82, Gy= 1.16, Gz= -1.25),   TEMP= 10.22 °F  
19:31:36.876 -> 
El tiempo es 0.009972 segundos 
389   (Ax= 1.03, Ay= 0.01, Az= -0.03),   (Gx= -0.85, Gy= 1.07, Gz= -1.24),   TEMP= 10.12 °F  
19:31:36.996 -> 
El tiempo es 0.009972 segundos 
390   (Ax= 1.03, Ay= 0.00, Az= -0.03),   (Gx= -0.95, Gy= 1.04, Gz= -1.17),   TEMP= 10.22 °F  
19:31:37.156 -> 
El tiempo es 0.009972 segundos 
391   (Ax= 1.03, Ay= 0.00, Az= -0.04),   (Gx= -0.80, Gy= 1.14, Gz= -1.31),   TEMP= 10.17 °F  
19:31:37.276 -> 
El tiempo es 0.009973 segundos 
392   (Ax= 1.03, Ay= 0.00, Az= -0.04),   (Gx= -1.08, Gy= 1.16, Gz= -1.17),   TEMP= 10.22 °F  
19:31:37.436 -> 
El tiempo es 0.009972 segundos 
393   (Ax= 1.02, Ay= -0.00, Az= -0.04),   (Gx= -0.95, Gy= 1.14, Gz= -1.22),   TEMP= 10.22 °F  
19:31:37.596 -> 
El tiempo es 0.009973 segundos 
394   (Ax= 1.03, Ay= 0.00, Az= -0.04),   (Gx= -0.82, Gy= 1.07, Gz= -1.25),   TEMP= 10.22 °F  
19:31:37.716 -> 
El tiempo es 0.009972 segundos 
395   (Ax= 1.03, Ay= 0.00, Az= -0.04),   (Gx= -0.94, Gy= 1.05, Gz= -1.39),   TEMP= 10.17 °F  
19:31:37.845 -> 
El tiempo es 0.009972 segundos 
396   (Ax= 1.03, Ay= 0.01, Az= -0.03),   (Gx= -0.89, Gy= 0.83, Gz= -1.21),   TEMP= 10.22 °F  
19:31:38.005 -> 
El tiempo es 0.009971 segundos 
397   (Ax= 1.03, Ay= 0.00, Az= -0.03),   (Gx= -0.98, Gy= 1.17, Gz= -1.21),   TEMP= 10.12 °F  
19:31:38.133 -> 
El tiempo es 0.009972 segundos 
398   (Ax= 1.03, Ay= 0.01, Az= -0.04),   (Gx= -0.88, Gy= 1.14, Gz= -1.17),   TEMP= 10.17 °F  
19:31:38.293 -> 
El tiempo es 0.009972 segundos 
399   (Ax= 1.02, Ay= 0.00, Az= -0.04),   (Gx= -0.77, Gy= 1.00, Gz= -1.31),   TEMP= 10.22 °F  
19:31:38.453 -> 
El tiempo es 0.009971 segundos 
400   (Ax= 1.02, Ay= 0.00, Az= -0.04),   (Gx= -0.90, Gy= 1.25, Gz= -1.22),   TEMP= 10.17 °F  
19:31:38.581 -> 
El tiempo es 0.009972 segundos 
401   (Ax= 1.03, Ay= 0.00, Az= -0.04),   (Gx= -0.99, Gy= 1.01, Gz= -1.11),   TEMP= 10.12 °F  
19:31:38.701 -> 
El tiempo es 0.009972 segundos 
402   (Ax= 1.03, Ay= 0.00, Az= -0.05),   (Gx= -1.09, Gy= 0.95, Gz= -1.06),   TEMP= 10.27 °F  
19:31:38.861 -> 
El tiempo es 0.009972 segundos 
403   (Ax= 1.03, Ay= 0.00, Az= -0.04),   (Gx= -0.86, Gy= 0.98, Gz= -1.10),   TEMP= 10.17 °F  
19:31:39.021 -> 
El tiempo es 0.009972 segundos 
404   (Ax= 1.03, Ay= 0.00, Az= -0.04),   (Gx= -0.70, Gy= 1.03, Gz= -1.25),   TEMP= 10.12 °F  
19:31:39.139 -> 
El tiempo es 0.009972 segundos 
405   (Ax= 1.03, Ay= 0.01, Az= -0.04),   (Gx= -0.84, Gy= 1.05, Gz= -1.10),   TEMP= 10.17 °F  
19:31:39.299 -> 
El tiempo es 0.009972 segundos 
406   (Ax= 1.03, Ay= -0.00, Az= -0.04),   (Gx= -0.89, Gy= 0.95, Gz= -1.23),   TEMP= 10.12 °F  
19:31:39.419 -> 
El tiempo es 0.009972 segundos 
407   (Ax= 1.03, Ay= 0.01, Az= -0.04),   (Gx= -0.87, Gy= 1.19, Gz= -1.21),   TEMP= 10.31 °F  
19:31:39.579 -> 
El tiempo es 0.009972 segundos 
408   (Ax= 1.03, Ay= 0.00, Az= -0.04),   (Gx= -0.96, Gy= 1.13, Gz= -1.34),   TEMP= 10.27 °F  
19:31:39.707 -> 
El tiempo es 0.009972 segundos 
409   (Ax= 1.03, Ay= 0.00, Az= -0.05),   (Gx= -0.86, Gy= 1.17, Gz= -1.16),   TEMP= 10.22 °F  
19:31:39.867 -> 
El tiempo es 0.009972 segundos 
410   (Ax= 1.03, Ay= -0.00, Az= -0.04),   (Gx= -0.76, Gy= 1.19, Gz= -1.25),   TEMP= 10.17 °F  
19:31:39.987 -> 
El tiempo es 0.009972 segundos 
411   (Ax= 1.03, Ay= 0.00, Az= -0.04),   (Gx= -0.98, Gy= 1.30, Gz= -1.07),   TEMP= 10.17 °F  
19:31:40.147 -> 
El tiempo es 0.009972 segundos 
412   (Ax= 1.03, Ay= 0.00, Az= -0.03),   (Gx= -0.82, Gy= 1.12, Gz= -1.36),   TEMP= 10.22 °F  
19:31:40.307 -> 
El tiempo es 0.009972 segundos 
413   (Ax= 1.03, Ay= 0.00, Az= -0.04),   (Gx= -0.95, Gy= 1.24, Gz= -1.34),   TEMP= 10.17 °F  
19:31:40.420 -> 
El tiempo es 0.009972 segundos 
414   (Ax= 1.03, Ay= 0.00, Az= -0.03),   (Gx= -0.87, Gy= 0.96, Gz= -1.21),   TEMP= 10.07 °F  
19:31:40.580 -> 
El tiempo es 0.009972 segundos 
415   (Ax= 1.03, Ay= 0.01, Az= -0.04),   (Gx= -0.92, Gy= 1.13, Gz= -1.27),   TEMP= 10.22 °F  
19:31:40.700 -> 
El tiempo es 0.009972 segundos 
416   (Ax= 1.03, Ay= 0.01, Az= -0.04),   (Gx= -0.93, Gy= 1.01, Gz= -1.21),   TEMP= 10.17 °F  
19:31:40.860 -> 
El tiempo es 0.009972 segundos 
417   (Ax= 1.03, Ay= 0.01, Az= -0.05),   (Gx= -0.85, Gy= 1.07, Gz= -1.26),   TEMP= 10.22 °F  
19:31:41.020 -> 
El tiempo es 0.009972 segundos 
418   (Ax= 1.03, Ay= -0.00, Az= -0.03),   (Gx= -0.98, Gy= 1.05, Gz= -1.14),   TEMP= 10.17 °F  
19:31:41.140 -> 
El tiempo es 0.009972 segundos 
419   (Ax= 1.03, Ay= 0.00, Az= -0.04),   (Gx= -0.86, Gy= 1.11, Gz= -1.10),   TEMP= 10.17 °F  
19:31:41.300 -> 
El tiempo es 0.009972 segundos 
420   (Ax= 1.03, Ay= 0.00, Az= -0.03),   (Gx= -0.74, Gy= 1.20, Gz= -1.08),   TEMP= 10.22 °F  
19:31:41.420 -> 
El tiempo es 0.009972 segundos 
421   (Ax= 1.03, Ay= 0.00, Az= -0.03),   (Gx= -0.69, Gy= 1.17, Gz= -1.23),   TEMP= 10.07 °F  
19:31:41.586 -> 
El tiempo es 0.009972 segundos 
422   (Ax= 1.03, Ay= 0.01, Az= -0.04),   (Gx= -0.86, Gy= 1.00, Gz= -1.20),   TEMP= 10.27 °F  
19:31:41.707 -> 
El tiempo es 0.009972 segundos 
423   (Ax= 1.03, Ay= 0.01, Az= -0.03),   (Gx= -0.89, Gy= 1.20, Gz= -1.24),   TEMP= 10.07 °F  
19:31:41.867 -> 
El tiempo es 0.009972 segundos 
424   (Ax= 1.04, Ay= 0.00, Az= -0.05),   (Gx= -0.82, Gy= 1.08, Gz= -1.25),   TEMP= 10.31 °F  
19:31:42.027 -> 
El tiempo es 0.009972 segundos 
425   (Ax= 1.03, Ay= 0.01, Az= -0.05),   (Gx= -0.86, Gy= 1.15, Gz= -1.26),   TEMP= 10.12 °F  
19:31:42.147 -> 
El tiempo es 0.009972 segundos 
426   (Ax= 1.03, Ay= 0.01, Az= -0.04),   (Gx= -0.89, Gy= 1.18, Gz= -1.30),   TEMP= 10.22 °F  
19:31:42.307 -> 
El tiempo es 0.009972 segundos 
427   (Ax= 1.03, Ay= 0.01, Az= -0.05),   (Gx= -1.01, Gy= 1.19, Gz= -1.23),   TEMP= 10.17 °F  
19:31:42.427 -> 
El tiempo es 0.009972 segundos 
428   (Ax= 1.03, Ay= 0.00, Az= -0.04),   (Gx= -1.01, Gy= 0.98, Gz= -1.24),   TEMP= 10.17 °F  
19:31:42.587 -> 
El tiempo es 0.009972 segundos 
429   (Ax= 1.03, Ay= 0.01, Az= -0.04),   (Gx= -1.08, Gy= 1.14, Gz= -1.21),   TEMP= 10.27 °F  
19:31:42.707 -> 
El tiempo es 0.009972 segundos 
430   (Ax= 1.04, Ay= 0.00, Az= -0.05),   (Gx= -0.82, Gy= 1.17, Gz= -1.27),   TEMP= 10.27 °F  
19:31:42.863 -> 
El tiempo es 0.009972 segundos 
431   (Ax= 1.04, Ay= -0.00, Az= -0.05),   (Gx= -0.81, Gy= 1.11, Gz= -1.17),   TEMP= 10.12 °F  
19:31:43.023 -> 
El tiempo es 0.009971 segundos 
432   (Ax= 1.03, Ay= 0.00, Az= -0.04),   (Gx= -1.01, Gy= 1.16, Gz= -1.24),   TEMP= 10.12 °F  
19:31:43.143 -> 
El tiempo es 0.009972 segundos 
433   (Ax= 1.03, Ay= 0.01, Az= -0.04),   (Gx= -0.89, Gy= 1.17, Gz= -1.21),   TEMP= 10.12 °F  
19:31:43.303 -> 
El tiempo es 0.009972 segundos 
434   (Ax= 1.03, Ay= 0.01, Az= -0.03),   (Gx= -0.91, Gy= 1.03, Gz= -1.01),   TEMP= 10.22 °F  
19:31:43.423 -> 
El tiempo es 0.009972 segundos 
435   (Ax= 1.03, Ay= 0.00, Az= -0.04),   (Gx= -0.89, Gy= 1.02, Gz= -1.21),   TEMP= 10.17 °F  
19:31:43.583 -> 
El tiempo es 0.009972 segundos 
436   (Ax= 1.04, Ay= 0.01, Az= -0.04),   (Gx= -0.95, Gy= 0.95, Gz= -1.26),   TEMP= 10.07 °F  
19:31:43.703 -> 
El tiempo es 0.009972 segundos 
437   (Ax= 1.03, Ay= 0.01, Az= -0.04),   (Gx= -0.79, Gy= 1.17, Gz= -1.27),   TEMP= 10.17 °F  
19:31:43.863 -> 
El tiempo es 0.009972 segundos 
438   (Ax= 1.03, Ay= 0.00, Az= -0.04),   (Gx= -0.92, Gy= 1.11, Gz= -1.19),   TEMP= 10.17 °F  
19:31:44.024 -> 
El tiempo es 0.009973 segundos 
439   (Ax= 1.03, Ay= 0.01, Az= -0.03),   (Gx= -0.79, Gy= 0.88, Gz= -1.14),   TEMP= 10.22 °F  
19:31:44.144 -> 
El tiempo es 0.009972 segundos 
440   (Ax= 1.03, Ay= 0.00, Az= -0.04),   (Gx= -0.94, Gy= 1.24, Gz= -1.14),   TEMP= 10.22 °F  
19:31:44.304 -> 
El tiempo es 0.009972 segundos 
441   (Ax= 1.03, Ay= 0.00, Az= -0.04),   (Gx= -0.92, Gy= 1.08, Gz= -1.24),   TEMP= 10.12 °F  
19:31:44.424 -> 
El tiempo es 0.009972 segundos 
442   (Ax= 1.03, Ay= 0.01, Az= -0.04),   (Gx= -0.99, Gy= 1.30, Gz= -1.15),   TEMP= 10.17 °F  
19:31:44.584 -> 
El tiempo es 0.009973 segundos 
443   (Ax= 1.03, Ay= 0.00, Az= -0.04),   (Gx= -0.89, Gy= 1.09, Gz= -1.21),   TEMP= 10.07 °F  
19:31:44.704 -> 
El tiempo es 0.009972 segundos 
444   (Ax= 1.03, Ay= 0.01, Az= -0.04),   (Gx= -0.86, Gy= 1.38, Gz= -1.19),   TEMP= 10.17 °F  
19:31:44.864 -> 
El tiempo es 0.009972 segundos 
445   (Ax= 1.03, Ay= 0.01, Az= -0.04),   (Gx= -0.77, Gy= 1.27, Gz= -1.14),   TEMP= 10.12 °F  
19:31:45.024 -> 
El tiempo es 0.009972 segundos 
446   (Ax= 1.03, Ay= 0.01, Az= -0.04),   (Gx= -1.09, Gy= 0.83, Gz= -1.27),   TEMP= 10.22 °F  
19:31:45.152 -> 
El tiempo es 0.009972 segundos 
447   (Ax= 1.03, Ay= 0.00, Az= -0.04),   (Gx= -0.93, Gy= 0.91, Gz= -1.25),   TEMP= 10.17 °F  
19:31:45.312 -> 
El tiempo es 0.009972 segundos 
448   (Ax= 1.03, Ay= 0.01, Az= -0.04),   (Gx= -0.82, Gy= 1.11, Gz= -1.11),   TEMP= 10.17 °F  
19:31:45.432 -> 
El tiempo es 0.009972 segundos 
449   (Ax= 1.02, Ay= 0.00, Az= -0.04),   (Gx= -0.89, Gy= 0.83, Gz= -1.14),   TEMP= 10.22 °F  
19:31:45.592 -> 
El tiempo es 0.009972 segundos 
450   (Ax= 1.03, Ay= 0.01, Az= -0.04),   (Gx= -1.03, Gy= 1.20, Gz= -1.12),   TEMP= 10.12 °F  
19:31:45.712 -> 
El tiempo es 0.009972 segundos 
451   (Ax= 1.04, Ay= 0.00, Az= -0.03),   (Gx= -0.84, Gy= 1.07, Gz= -1.31),   TEMP= 10.12 °F  
19:31:45.872 -> 
El tiempo es 0.009972 segundos 
452   (Ax= 1.03, Ay= 0.01, Az= -0.04),   (Gx= -0.97, Gy= 1.28, Gz= -1.50),   TEMP= 10.17 °F  
19:31:45.992 -> 
El tiempo es 0.009972 segundos 
453   (Ax= 1.03, Ay= 0.01, Az= -0.04),   (Gx= -0.91, Gy= 1.11, Gz= -1.18),   TEMP= 10.22 °F  
19:31:46.152 -> 
El tiempo es 0.009971 segundos 
454   (Ax= 1.03, Ay= 0.00, Az= -0.04),   (Gx= -0.89, Gy= 1.08, Gz= -1.06),   TEMP= 10.31 °F  
19:31:46.312 -> 
El tiempo es 0.009972 segundos 
455   (Ax= 1.03, Ay= 0.00, Az= -0.04),   (Gx= -0.93, Gy= 1.01, Gz= -1.21),   TEMP= 10.27 °F  
19:31:46.432 -> 
El tiempo es 0.009972 segundos 
456   (Ax= 1.03, Ay= 0.00, Az= -0.05),   (Gx= -0.69, Gy= 1.02, Gz= -1.08),   TEMP= 10.12 °F  
19:31:46.592 -> 
El tiempo es 0.009972 segundos 
457   (Ax= 1.04, Ay= 0.01, Az= -0.04),   (Gx= -1.01, Gy= 1.09, Gz= -1.19),   TEMP= 10.17 °F  
19:31:46.712 -> 
El tiempo es 0.009972 segundos 
458   (Ax= 1.03, Ay= 0.01, Az= -0.04),   (Gx= -0.78, Gy= 1.17, Gz= -1.17),   TEMP= 10.12 °F  
19:31:46.872 -> 
El tiempo es 0.009972 segundos 
459   (Ax= 1.03, Ay= 0.00, Az= -0.04),   (Gx= -0.92, Gy= 1.06, Gz= -1.45),   TEMP= 10.22 °F  
19:31:46.992 -> 
El tiempo es 0.009972 segundos 
460   (Ax= 1.03, Ay= 0.00, Az= -0.05),   (Gx= -1.10, Gy= 1.08, Gz= -1.11),   TEMP= 10.17 °F  
19:31:47.152 -> 
El tiempo es 0.009980 segundos 
461   (Ax= 1.03, Ay= 0.00, Az= -0.03),   (Gx= -0.87, Gy= 1.23, Gz= -1.24),   TEMP= 10.12 °F  
19:31:47.312 -> 
El tiempo es 0.009972 segundos 
462   (Ax= 1.03, Ay= 0.00, Az= -0.04),   (Gx= -0.78, Gy= 1.11, Gz= -1.35),   TEMP= 10.07 °F  
19:31:47.432 -> 
El tiempo es 0.009972 segundos 
463   (Ax= 1.03, Ay= 0.00, Az= -0.03),   (Gx= -1.12, Gy= 1.24, Gz= -1.24),   TEMP= 10.22 °F  
19:31:47.587 -> 
El tiempo es 0.009972 segundos 
464   (Ax= 1.03, Ay= 0.00, Az= -0.04),   (Gx= -0.86, Gy= 1.07, Gz= -1.42),   TEMP= 10.12 °F  
19:31:47.705 -> 
El tiempo es 0.009972 segundos 
465   (Ax= 1.03, Ay= 0.00, Az= -0.04),   (Gx= -0.77, Gy= 1.09, Gz= -1.28),   TEMP= 10.17 °F  
19:31:47.865 -> 
El tiempo es 0.009972 segundos 
466   (Ax= 1.03, Ay= 0.00, Az= -0.05),   (Gx= -1.03, Gy= 1.12, Gz= -1.27),   TEMP= 10.12 °F  
19:31:48.025 -> 
El tiempo es 0.009972 segundos 
467   (Ax= 1.04, Ay= 0.00, Az= -0.03),   (Gx= -0.92, Gy= 1.29, Gz= -1.35),   TEMP= 10.22 °F  
19:31:48.145 -> 
El tiempo es 0.009972 segundos 
468   (Ax= 1.03, Ay= -0.00, Az= -0.03),   (Gx= -0.92, Gy= 0.95, Gz= -1.29),   TEMP= 10.17 °F  
19:31:48.305 -> 
El tiempo es 0.009972 segundos 
469   (Ax= 1.03, Ay= -0.00, Az= -0.05),   (Gx= -0.89, Gy= 0.98, Gz= -1.21),   TEMP= 10.17 °F  
19:31:48.425 -> 
El tiempo es 0.009972 segundos 
470   (Ax= 1.03, Ay= 0.01, Az= -0.04),   (Gx= -1.09, Gy= 0.95, Gz= -1.27),   TEMP= 10.22 °F  
19:31:48.585 -> 
El tiempo es 0.009972 segundos 
471   (Ax= 1.03, Ay= 0.00, Az= -0.03),   (Gx= -0.89, Gy= 1.08, Gz= -1.19),   TEMP= 10.17 °F  
19:31:48.705 -> 
El tiempo es 0.009972 segundos 
472   (Ax= 1.03, Ay= -0.00, Az= -0.03),   (Gx= -0.85, Gy= 1.10, Gz= -1.11),   TEMP= 10.17 °F  
19:31:48.863 -> 
El tiempo es 0.009972 segundos 
473   (Ax= 1.03, Ay= 0.01, Az= -0.04),   (Gx= -0.99, Gy= 1.15, Gz= -1.16),   TEMP= 10.22 °F  
19:31:49.023 -> 
El tiempo es 0.009972 segundos 
474   (Ax= 1.03, Ay= 0.01, Az= -0.04),   (Gx= -0.85, Gy= 1.33, Gz= -1.30),   TEMP= 10.22 °F  
19:31:49.143 -> 
El tiempo es 0.009972 segundos 
475   (Ax= 1.03, Ay= 0.01, Az= -0.04),   (Gx= -0.99, Gy= 1.05, Gz= -1.13),   TEMP= 10.22 °F  
19:31:49.303 -> 
El tiempo es 0.009972 segundos 
476   (Ax= 1.02, Ay= 0.00, Az= -0.04),   (Gx= -0.98, Gy= 1.05, Gz= -1.11),   TEMP= 10.17 °F  
19:31:49.423 -> 
El tiempo es 0.009972 segundos 
477   (Ax= 1.03, Ay= 0.01, Az= -0.04),   (Gx= -0.86, Gy= 1.11, Gz= -1.36),   TEMP= 10.17 °F  
19:31:49.583 -> 
El tiempo es 0.009973 segundos 
478   (Ax= 1.03, Ay= 0.00, Az= -0.04),   (Gx= -0.86, Gy= 1.06, Gz= -1.36),   TEMP= 10.17 °F  
19:31:49.743 -> 
El tiempo es 0.009972 segundos 
479   (Ax= 1.04, Ay= 0.01, Az= -0.04),   (Gx= -0.95, Gy= 0.96, Gz= -1.33),   TEMP= 10.12 °F  
19:31:49.863 -> 
El tiempo es 0.009973 segundos 
480   (Ax= 1.03, Ay= 0.00, Az= -0.04),   (Gx= -0.92, Gy= 1.17, Gz= -1.28),   TEMP= 10.12 °F  
19:31:50.023 -> 
El tiempo es 0.009972 segundos 
481   (Ax= 1.03, Ay= 0.01, Az= -0.03),   (Gx= -0.96, Gy= 1.07, Gz= -1.24),   TEMP= 10.17 °F  
19:31:50.141 -> 
El tiempo es 0.009972 segundos 
482   (Ax= 1.03, Ay= 0.00, Az= -0.04),   (Gx= -0.83, Gy= 0.96, Gz= -1.10),   TEMP= 10.27 °F  
19:31:50.301 -> 
El tiempo es 0.009971 segundos 
483   (Ax= 1.04, Ay= 0.01, Az= -0.05),   (Gx= -0.77, Gy= 1.22, Gz= -1.12),   TEMP= 10.12 °F  
19:31:50.421 -> 
El tiempo es 0.009972 segundos 
484   (Ax= 1.03, Ay= 0.00, Az= -0.03),   (Gx= -0.79, Gy= 1.13, Gz= -1.24),   TEMP= 10.12 °F  
19:31:50.581 -> 
El tiempo es 0.009972 segundos 
485   (Ax= 1.03, Ay= 0.00, Az= -0.04),   (Gx= -1.03, Gy= 1.17, Gz= -1.28),   TEMP= 10.12 °F  
19:31:50.741 -> 
El tiempo es 0.009971 segundos 
486   (Ax= 1.03, Ay= 0.01, Az= -0.04),   (Gx= -0.79, Gy= 1.24, Gz= -1.11),   TEMP= 10.17 °F  
19:31:50.861 -> 
El tiempo es 0.009972 segundos 
487   (Ax= 1.03, Ay= -0.00, Az= -0.04),   (Gx= -1.12, Gy= 0.88, Gz= -1.44),   TEMP= 10.27 °F  
19:31:51.021 -> 
El tiempo es 0.009971 segundos 
488   (Ax= 1.03, Ay= 0.00, Az= -0.04),   (Gx= -0.84, Gy= 1.16, Gz= -1.25),   TEMP= 10.17 °F  
19:31:51.141 -> 
El tiempo es 0.009972 segundos 
489   (Ax= 1.03, Ay= 0.00, Az= -0.04),   (Gx= -0.88, Gy= 1.08, Gz= -1.33),   TEMP= 10.12 °F  
19:31:51.301 -> 
El tiempo es 0.009972 segundos 
490   (Ax= 1.03, Ay= 0.01, Az= -0.04),   (Gx= -0.91, Gy= 0.89, Gz= -1.16),   TEMP= 10.22 °F  
19:31:51.423 -> 
El tiempo es 0.009972 segundos 
491   (Ax= 1.03, Ay= 0.01, Az= -0.04),   (Gx= -1.01, Gy= 1.01, Gz= -1.33),   TEMP= 10.17 °F  
19:31:51.583 -> 
El tiempo es 0.009972 segundos 
492   (Ax= 1.03, Ay= 0.01, Az= -0.05),   (Gx= -0.83, Gy= 0.89, Gz= -1.30),   TEMP= 10.12 °F  
19:31:51.743 -> 
El tiempo es 0.009972 segundos 
493   (Ax= 1.03, Ay= 0.01, Az= -0.04),   (Gx= -0.99, Gy= 0.90, Gz= -1.14),   TEMP= 10.27 °F  
19:31:51.863 -> 
El tiempo es 0.009972 segundos 
494   (Ax= 1.03, Ay= 0.00, Az= -0.04),   (Gx= -0.78, Gy= 1.21, Gz= -1.11),   TEMP= 10.12 °F  
19:31:52.023 -> 
El tiempo es 0.009972 segundos 
495   (Ax= 1.03, Ay= 0.00, Az= -0.04),   (Gx= -1.01, Gy= 1.29, Gz= -1.11),   TEMP= 10.17 °F  
19:31:52.143 -> 
El tiempo es 0.009971 segundos 
496   (Ax= 1.03, Ay= 0.00, Az= -0.04),   (Gx= -0.90, Gy= 1.30, Gz= -1.44),   TEMP= 10.17 °F  
19:31:52.303 -> 
El tiempo es 0.009973 segundos 
497   (Ax= 1.03, Ay= 0.00, Az= -0.05),   (Gx= -0.98, Gy= 1.25, Gz= -1.30),   TEMP= 10.12 °F  
19:31:52.423 -> 
El tiempo es 0.009972 segundos 
498   (Ax= 1.03, Ay= 0.01, Az= -0.04),   (Gx= -0.98, Gy= 1.04, Gz= -1.14),   TEMP= 10.17 °F  
19:31:52.580 -> 
El tiempo es 0.009972 segundos 
499   (Ax= 1.03, Ay= 0.00, Az= -0.04),   (Gx= -0.87, Gy= 1.25, Gz= -1.12),   TEMP= 10.22 °F  
19:31:52.740 -> 
El tiempo es 0.009972 segundos 
500   (Ax= 1.03, Ay= 0.00, Az= -0.04),   (Gx= -0.90, Gy= 1.05, Gz= -1.37),   TEMP= 10.17 °F  
19:31:52.860 -> 


