\relax 
\citation{baio2011avaliaccao}
\citation{collepardi1991scienza}
\citation{braga2005eletronica}
\citation{bronson2000c}
\citation{amarante2008questao}
\citation{oliveira2003relaccao}
\citation{queiroga2008tecnologias}
\newlabel{usepackage}{{}{}}
\newlabel{sec:titulo}{{}{}}
\newlabel{sec:resumen}{{}{}}
\@writefile{toc}{\contentsline {section}{\numberline {I}Introducci\'on}{}{}\protected@file@percent }
\newlabel{sec:introduccion}{{I}{}}
\@writefile{toc}{\contentsline {section}{\numberline {II}Marco Te\'orico}{}{}\protected@file@percent }
\newlabel{sec:marcoteorico}{{II}{}}
\@writefile{toc}{\contentsline {subsection}{\numberline {\mbox  {II-A}}Instrumentos de medici\'on}{}{}\protected@file@percent }
\@writefile{toc}{\contentsline {subsubsection}{\numberline {\mbox  {II-A}1}Programaci\'on 2}{}{}\protected@file@percent }
\@writefile{toc}{\contentsline {subsubsection}{\numberline {\mbox  {II-A}2}Programaci\'on 3}{}{}\protected@file@percent }
\@writefile{toc}{\contentsline {subsubsection}{\numberline {\mbox  {II-A}3}Programaci\'on 4}{}{}\protected@file@percent }
\@writefile{toc}{\contentsline {section}{\numberline {III}Resultados}{}{}\protected@file@percent }
\newlabel{sec:resultados}{{III}{}}
\newlabel{eq:cuadratica}{{1}{}}
\newlabel{eq:cuadratica}{{2}{}}
\@writefile{lof}{\contentsline {figure}{\numberline {1}{\ignorespaces Piedra esmeril}}{}{}\protected@file@percent }
\newlabel{fig:ECCI2}{{1}{}}
\@writefile{lof}{\contentsline {figure}{\numberline {2}{\ignorespaces Logo de la universidad ECCI}}{}{}\protected@file@percent }
\newlabel{fig:ECCI}{{2}{}}
\@writefile{toc}{\contentsline {section}{\numberline {IV}An\'alisis}{}{}\protected@file@percent }
\newlabel{sec:analisis}{{IV}{}}
\@writefile{lot}{\contentsline {table}{\numberline {I}{\ignorespaces Ejemplo de una tabla en Latex}}{}{}\protected@file@percent }
\newlabel{tab:ejemplo}{{I}{}}
\citation{oliveira2003relaccao}
\bibstyle{IEEEtran}
\bibdata{bibfile}
\@writefile{toc}{\contentsline {section}{\numberline {V}Conclusiones}{}{}\protected@file@percent }
\newlabel{sec:conclusiones}{{V}{}}
\gdef \@abspage@last{2}
