\relax 
\citation{colin2011gps}
\citation{Giros}
\citation{STM32}
\citation{Acele}
\newlabel{usepackage}{{}{}}
\newlabel{sec:titulo}{{}{}}
\newlabel{sec:resumen}{{}{}}
\@writefile{toc}{\contentsline {section}{\numberline {I}Introducci\'on}{}{}\protected@file@percent }
\newlabel{sec:introduccion}{{I}{}}
\@writefile{toc}{\contentsline {section}{\numberline {II}Marco Te\'orico}{}{}\protected@file@percent }
\newlabel{sec:marcoteorico}{{II}{}}
\@writefile{lof}{\contentsline {figure}{\numberline {1}{\ignorespaces MPU 6050}}{}{}\protected@file@percent }
\newlabel{fig:ECCI1}{{1}{}}
\@writefile{lof}{\contentsline {figure}{\numberline {2}{\ignorespaces Tarjeta de desarrollo STM32F746}}{}{}\protected@file@percent }
\newlabel{fig:ECCI2}{{2}{}}
\citation{Acele2}
\@writefile{lof}{\contentsline {figure}{\numberline {3}{\ignorespaces Giroscopio}}{}{}\protected@file@percent }
\newlabel{fig:ECCI3}{{3}{}}
\@writefile{lof}{\contentsline {figure}{\numberline {4}{\ignorespaces Aceleraci\'on}}{}{}\protected@file@percent }
\newlabel{fig:ECCI4}{{4}{}}
\@writefile{toc}{\contentsline {section}{\numberline {III}Resultados}{}{}\protected@file@percent }
\newlabel{sec:resultados}{{III}{}}
\@writefile{lof}{\contentsline {figure}{\numberline {5}{\ignorespaces Aceler\'ometro}}{}{}\protected@file@percent }
\newlabel{fig:ECCI5}{{5}{}}
\@writefile{lof}{\contentsline {figure}{\numberline {6}{\ignorespaces Giroscopio}}{}{}\protected@file@percent }
\newlabel{fig:ECCI6}{{6}{}}
\@writefile{toc}{\contentsline {section}{\numberline {IV}Conclusiones}{}{}\protected@file@percent }
\newlabel{sec:Conclusiones}{{IV}{}}
\bibstyle{IEEEtran}
\bibdata{bibfile}
\@writefile{toc}{\contentsline {section}{\numberline {V}Referencias}{}{}\protected@file@percent }
\newlabel{sec:Referencias}{{V}{}}
\gdef \@abspage@last{3}
